<?xml version="1.0" encoding="UTF-8" standalone="no"?>
<!-- Created with Inkscape (http://www.inkscape.org/) -->

<svg
   xmlns:dc="http://purl.org/dc/elements/1.1/"
   xmlns:cc="http://creativecommons.org/ns#"
   xmlns:rdf="http://www.w3.org/1999/02/22-rdf-syntax-ns#"
   xmlns:svg="http://www.w3.org/2000/svg"
   xmlns="http://www.w3.org/2000/svg"
   xmlns:xlink="http://www.w3.org/1999/xlink"
   xmlns:sodipodi="http://sodipodi.sourceforge.net/DTD/sodipodi-0.dtd"
   xmlns:inkscape="http://www.inkscape.org/namespaces/inkscape"
   width="417.25681"
   height="618"
   id="svg2"
   version="1.1"
   inkscape:version="0.48.4 r9939"
   sodipodi:docname="main-tab.svg">
  <defs
     id="defs4">
    <marker
       inkscape:stockid="Arrow1Mend"
       orient="auto"
       refY="0"
       refX="0"
       id="Arrow1Mend"
       style="overflow:visible">
      <path
         id="path3905"
         d="M 0,0 5,-5 -12.5,0 5,5 0,0 z"
         style="fill-rule:evenodd;stroke:#000000;stroke-width:1pt"
         transform="matrix(-0.4,0,0,-0.4,-4,0)"
         inkscape:connector-curvature="0" />
    </marker>
  </defs>
  <sodipodi:namedview
     id="base"
     pagecolor="#ffffff"
     bordercolor="#666666"
     borderopacity="1.0"
     inkscape:pageopacity="0.0"
     inkscape:pageshadow="2"
     inkscape:zoom="0.98994949"
     inkscape:cx="23.77543"
     inkscape:cy="364.3516"
     inkscape:document-units="px"
     inkscape:current-layer="layer1"
     showgrid="false"
     fit-margin-top="0"
     fit-margin-left="0"
     fit-margin-right="0"
     fit-margin-bottom="0"
     inkscape:window-width="1920"
     inkscape:window-height="1025"
     inkscape:window-x="-2"
     inkscape:window-y="-3"
     inkscape:window-maximized="1" />
  <metadata
     id="metadata7">
    <rdf:RDF>
      <cc:Work
         rdf:about="">
        <dc:format>image/svg+xml</dc:format>
        <dc:type
           rdf:resource="http://purl.org/dc/dcmitype/StillImage" />
        <dc:title />
      </cc:Work>
    </rdf:RDF>
  </metadata>
  <g
     inkscape:label="Calque 1"
     inkscape:groupmode="layer"
     id="layer1"
     transform="translate(-185.50534,-109.36362)">
    <image
       y="109.36362"
       x="334.76215"
       id="image3079"
       xlink:href="data:image/png;base64,iVBORw0KGgoAAAANSUhEUgAAAQwAAAJqCAIAAABRq+keAAAAA3NCSVQICAjb4U/gAAAgAElEQVR4 nOydeXwUVdb3T1X1nu4knaWzh6QTspIQQmQTRJYIAqMiKigq6qAODqjooDPzyszo44w6+JFJEEUH FVQeZHNEH3BhEBXZkgABAkkISToLScieztJrdb1/XFJUqtc0HboT7vcPqNRy61T1/dW5+yEKCwtb Wlp0Oh34BgRBiMXikJAQoVDobVswGAAAQVtbW0BAQGZmJkEQ3jYGAMBsNtfX17e1tYWHh3vbFgwG AEDQ19eXnp7OMIzJZPK2MUAQBEmSsbGxhYWF3rYFg7mKgGEYkiR9QSEAwDCMxWIRCoUMw3R2dhqN Rq+YQRAERVEkSXrLgMGCDA4ICKAoytu2jEAE6D+GYbxrBwtriVAoDAoKuvGFQIZhGIZpa2vzlgGD BRnc09PT3d0dGBjobXNGID4nEha5XI4cyw2+L1IFTdPeMmCwIIPlcnlzc7O3bRmZkN42wC4EQXhF ukw/3jJgsAwva4cjPi2Sm9yAQTG8rB1eCMD3ylrIHvSB9K4ZvvZmHDCMTB12XBWJT71inzIGg/Fw caugoODvf/+7Z9PEYLyLXZFUVlYuW7bsnXfe4e48cuTIsmXLtm3bZu+qpKSkhQsXesSywfqTt956 q6yszCO3ds8A7zK8rB1eCBwcCw0NvXDhQnd3t0KhQHuOHj0aERHh4JLAwEAPNtVb//C9vb1r165d s2YNa0ZZWdmWLVtef/31+fPnx8TEeDav2ExNo9H861//AgCRSKRSqXJzc8eOHevBm2J8Dbv9JAzD CIXClJSUEydOzJo1CwC6urrq6+szMzPRUbPZ/OGHH5aXl5tMJrVa/bvf/U4ul//666+HDh1au3Yt ALz44ou5ubknTpzo6+sLCwtbsWKFVCq9TnP9/PySkpKKi4tZkZw5cyYzM1MgEKSnp19n4q4jEon+ +c9/GgyG4uLirVu3/vnPfw4JCblhd8fcYBx5EpPJNHny5B9//BGJ5Pjx47fccovBYLh6pUAwadKk J554giTJt95668cff7zrrrt4KZSUlLzyyiskSb755puHDh2aN2/e9VucnZ39448/3nnnnQBgsVjO nTu3dOlSAHjttdfuv//+1NRUADh8+PChQ4fMZnN2dvZdd91VU1Pz/vvvv/nmmyRJHj9+/Isvvnjl lVdCQkJqa2vfe++9f/zjHyTpTt1MLBZPnDhx7969zc3NISEhr7322gMPPLB3716j0bh27drOzs7d u3drNBqJRDJz5swpU6agq44ePXro0KHOzs6IiIjnn3+eJMnKyso9e/Z0dnaq1eolS5bI5fLa2tpd u3a1tbWJxeI5c+ZMmjTJes/1v0mMizhqArZYLNnZ2Vu3bm1paQkNDT127NiyZcsOHTrEnpCdnY02 0tLSWlparFOYOnUqGk2kVquvXLniok2Oi0yZmZk7d+68cuVKWFhYZWUlwzDJycncEy5evHjgwIHn n39eIpHk5+eHhoaiLNXQ0BAdHX3hwoW4uLjy8vKQkJDKysrExET3FAIARqOxsLDQYrHExsaiPfv2 7Xv44YdDQ0MBYMuWLcnJyU888URHR8fGjRuDgoJSUlLOnj27f//+5cuXR0VFtba2kiTZ29u7efPm ZcuWJSUlbd++fc+ePcuWLfvmm29ycnKmT5/e2dmJuvyt92BuGCQ47IeSSCTjxo07fvx4Y2OjwWCI j49nD5nN5t27d7/++uv/+Mc/jh49ajNny2Syq7chSZqmXbQJ2cPYQSwWp6SkFBcXMwxTXFw8duxY 1NnM9q4UFRVlZ2crlUqpVDpu3LiSkhKSJOPj4zUaDU3TVVVVt99+e2lpKcMwVVVVo0ePtnkXBwYA gNFo/MMf/rB27dpTp049+eSTfn5+6NCkSZMiIyOFQmFra2tNTc3MmTMJgggKCsrJySksLGQY5tSp Uzk5OaNGjRIIBOHh4QzDnD9/PiQkJDk5mSCISZMmnT9/nmGYkJCQkpKSlpaWgIAApVJpc49NwzBD gd1+EjajTJ48eceOHUajcfLkydzcs2/fvtLS0hdffFEqle7YsaO7u9vmD8bLcK7Y5PS07Ozs//73 v7m5uWfPnn300Ud5R7u6us6cOXPy5EkAoGk6LCwMAEaPHq3RaMLDw8PDw5OTk3fu3EnTdHV1NSq2 DRaRSPTWW29Z71cqlWhDq9WKxWKRSIT+9Pf3v3TpEgB0d3ePGjWKZ21jY+Nf/vIX9sH1ev299957 8ODBvLy8xMTERYsWyeVy6z1umI1xD0d1EsSYMWM++uijgwcPvvbaa9z9PT09crlcJBJ1dHScOnVq 9OjRnrXMgVTS09O/+OKLM2fOkCSZkJDAO+rv7z99+nRe7k9MTCwsLAwMDExJSZFIJGFhYadPnwYA B1O73Pg2sz45MDDQYDAYDAaxWAwAWq0WNfopFIru7m6etbGxsatWreIlNWfOnBkzZmzfvv3LL798 9NFHBQIBb8/1W4txEefFcZIkJ0yYEB0dHRwczN0/e/bs9vb2VatWvf/++7Nnzx4yC20gEonS09P3 79+Pylq8o+PHjz9x4kRdXR1N0x0dHU1NTQAQExPT3d1dWVmJavbJycnHjh1LTEwcoiFPSqVSrVb/ 8MMPNE23trYWFBSMHz8eAFC5q66uzmQy1dXVAUBaWlpTU1NxcbHZbO7t7a2pqQGAyspKmqaFQmFw cDCa6mO9B3PDsOtJEhIS3n77bbSNmo8Qjz/+ONpQqVQ83wIAU6dOnTp1KtpmLweA+++/3w3jHHwd s7KyTp8+/dBDD/GKdgzDJCUlzZs377PPPmtra/P397/77rvDwsIIghg1atTly5cjIiIYhklOTv7+ ++8XLVrk+ANs8yhbgLR5iN3/8MMP79q1a+3atVKpdMaMGampqQzDpKWlzZo165NPPunu7o6Kinru uef8/PyefPLJr776atu2bUKhcPLkybGxsYcPH/74448BICIi4v7772cYxnqPS28Q4wmIPXv2cBt2 fQGxWFxYWBgXF+d6Xd/jtLe3h4aGetGAwUJRVEtLi0ql8rYhIxDfnXSFwfgIvjufBIPxEbBIMBgn OG8C9hZe7yDzugGDYhiZOuzAngSDcYLvVty9bpLXDRgUw8va4QX2JBiME3y3TlJbW+tdA3p7e71r gBtUV1d724SRBkEQvrhaik6ny8nJ8bYVGAwAQHd3t496Er1e720TMBgAAKFQiOskGIwTsEgwGCdg kWAwTsAiwWCcgEWCwTgBiwSDcQIWCQbjBCwSDMYJzjsTzWZzXV2dr43RIAhCKpVGR0ezy/ZgMEOE c5FcvnxZoVCMGTPGp2IpoXDv9fX1arXa27ZgRjjORdLT04NW+vCdlWxwuHfMjcS5SBhfCvSOYDjh 3hsbG31woBdBEEKhMCwsTCDw0dFxGNdx9Sf0tUWa2ZHLFEWFh4f7VFEQzfvt6elpbm6OjIz0tjmY 62XYf+d8MNo6Dqw+whj2TcA+GL8ceRIfNAzjHiNBJN42wTY+axhmsLhU3LJYLD74UURFLJ9d+Mc3 rcK4gTc9SWVl5R//+EcvGoDBuIL7Iunu7s7Ly3v66adXrly5ceNGtPP48eMeMgwYhvniiy9WrFjh 9DRP3ZGHRqO5npj02JOMGNxv3dq9e7dYLH777bcNBgNqxtHpdNu3b/dIzEuTyZSfny+TyVzJajbP 6enp2bFjx8WLFwUCwejRox977DEAOHXqFBvn0cVkbSau1Wr37t17/vx5sVicm5vLRpvAjEhcFYl1 Xmlra5s6dapcLpfL5SiyzNtvv93V1bVmzZpp06bNmjVr06ZNVVVVBEHMmzcPxZ2qq6v79NNPa2pq goOD//rXv7Ix4q5cufKPf/xjzZo10dHRV80SCKZNm5aUlHTmzBn3Psn79+8XiURr1641Go2tra0A oNfr9+7d67pIHNDS0hIVFXXfffdptdr169cnJyejYKKYEYn7nmTs2LHffPNNREQEij0rEAh+97vf rV279p///Cc6YcaMGc8++2xTU9Nf//rXadOmSSSS9evXL1iwYM2aNc3NzRKJBABQX/7GjRuXLFnC KgRxyy23dHV1uW1eR0fHhAkTUGzBoKAgmqY3bdqk1Wpff/31iRMnTp069dNPP62trSUIYubMmTNn zgSAhoaGXbt2Xb58WalUvvDCC2xSLS0tGzZsWLFiBRs8PiEhAYWhk0qlKpWqtbUVi2QE475IZs+e TZLkO++8ExMT8/DDD6P4nVzGjRsHANHR0QqFoqOjQ6/XWywWlB1ZPYjF4u3bt48ePXry5MluW2KT 1NTUH374QaVSRUVFAQBFUY8++ug///nPV155BZ1w6623Ll++vLm5+e233544caJEIvnwww9zc3NX rFiBwqUDAEEQJpNpy5Ytd999N6sQLgaDoa2tDd0CM1K5rh73mTNn3nbbbfv27XvrrbdYB4LQ6XS7 d++uqamhKKqnp4dhmO7u7oCAAF4KTU1Nly9fvvvuu922wV4T8LRp00iS/OCDDyIjI++9997Q0FBe HSM9PR0AwsPD5XJ5Z2enwWBgGGbKlCloJzpNJBJ99dVXcXFx2dnZNu/y9ddfjx8/XqFQ2AtfjBkB uNS6xdiHoqi77rrLaDS2tbVxT967d293d/cf//jHP/7xjyjMuVwu12q1vMulUulrr7327bffNjc3 20zf8d0dm33rrbeuXbs2Li7uvffe4wV20+v1u3fvzsvLe/fdd3t7exmG6enpUSgUvBRaWloKCwvZ wNM8fv3114aGht/85jeuvEPM8MUlkdjsPC4uLkYf4IKCAgAICgqSy+UGgwH5jZ6enoCAAJIkT58+ rdVqASA+Pl4gEPz0009GoxGFxgUAkUgUFhY2d+7cTz/9dLCmI6scSwVFdjaZTB0dHdyn+P777/v6 +lauXLly5UqpVAoAfn5+vODRACCRSP7whz8cOnSI/QSwnD179siRI8uXL7c3zhd7khGDq57EemdR UdErr7zy7LPPfvvttytXrhQIBGKx+Pbbb1+zZs3u3bvvuOOOM2fOrFq1qqSkZOzYsQAgEAieeeaZ X375ZeXKlZs2beJ+2ufOndve3n7s2LFBme44F54/f76rq8toNBYXFwOAUqmUyWRGoxH5jb6+PoVC QZJkSUlJT08PAIwaNUogEBw7dsxoNDY0NLAaDg0NnTFjxu7du7mJV1ZWfvXVV8uWLaMoymAwmM3m QVmOGV4Qe/bsycnJcTAlo6SkZMKECT44Z0MikRQUFNgL0rt9+/aSkhKz2RweHn7XXXehxqg9e/YU FRXdeuut2dnZW7Zs6e3tzc7O7uzsnDt3blRUVH19/e7duxsaGoKDg1evXt3Y2Lh9+/Y//vGPNE2/ /fbbs2fPRrHYAWDr1q1nzpxh75WZmYn6YbigcLjx8fFD9fyYG4VLIvG1GNYIX4hk7QAskhGD+52J GMxNwrAfKo/BDDXDfmaiK23BXsE3rcK4gfutW17HN63CjDzc7yfxOr5pFWbk4VJxyzeLNIz9oey+ gM8ahhksLonEN7/ZyCqvB+l1TElJibdNwDjClfVyXfUknrPKY+AgvZjrp7u7u7W19fLlyw56tIZ3 65YPjgPADC+EQmFAQEB7e7uDc3A/CeZmx+kKaVgkGIwTsEgwGCdgkWAwTnCz4m4ymaqrqzs7O20e JUnSz89PrVabTKbKyko0nwSDGaa4KRKNRhMZGblgwQKbRw0GQ0VFRVVVVX5+vlKp9IhIKioq3nnn nQceeGDGjBnXnxoG4zpuiqS9vX3OnDn2Ah4IhcLo6OgVK1Z0dna+/vrr1iesXr1aq9WOHTv22Wef RXveeeed8+fPK5XKt99+22aaMpksMjLSeikJDGaocVMkNE2TJGmxWGx2xnd3dy9durSpqSkvLy8o KMheIuXl5RaLhSRJo9FYXl7u+I5RUVFr1651z1oM5npwUyTIhxAEYTQahUIhKxW0BMTSpUtLS0sX L16cmJhoL4XIyMiGhobKysrRo0eXlZXRNB0dHY1i/NI0vWXLlvPnz+v1+qSkpCeeeMLf3//MmTP5 +fkLFy5csGDBzp07f/nllzvvvPO7776jKOqBBx5ASwFhMEOBm61bqPMlPz9/2bJlaHkUGKiQZcuW OR4zEhYWJpfLL1y4AADnzp2Lj49nB89QFEXT9LRp06ZNm3bu3Ln/+7//s75cp9MdPXr0N7/5jdFo /Pzzz30q0hVmhOGmSFCmvHDhQlFR0VNPPYUW42EVkpmZuXbtWseLlJpMptTU1PPnzwPAuXPnMjIy uFPVn3rqqYULF95///0A0NDQYDOFBQsW3HHHHSkpKQaDoaOjw70HwWCc4r4nYRhm4sSJAFBUVPT0 00/X19cjhajV6o8//thisThdaCctLa26urq6urqlpSUjI4Pd397e/u677/7hD394/vnnwX5MU1Tb QeuR+uZaEJiRgfuehGGYxx57bOXKlQBQVFR0xx13lJaWKhSK9evXo2WqnRaB0tLSLBbLrl27/P39 4+Li2P3/+c9/Tp8+fccdd/y///f/HJlO4p5QzI3guuokJpNp1apVv//979E2ALzzzjvJycnou+50 gH1ISIhKpSovL09PT+e2kiEXJBaLT5486Z55GIwHcX+ovE6noygK6UQsFp85c2b27NlTp05FWdxo NLpSmU5PT29ubs7MzOTunDt3rkaj2b59+8SJEzMzM31wyS/MTYVLi9NZn3Dy5EmVSjVhwgSKogAA /Qv9dQOapgsLC1tbW7OysobSeAzGA+h0usrKyjFjxtg7wU1PkpaWVlZW9sknn9g8SpKkUqnk+QcM ZpjipkikUimK0YPBjHhwAxEG4wQsEgzGCcN7IYiRx7CeqKPT6Y4fP97U1GTzKEVRSqVyypQpfn5+ N9iw6wSLxLe48RN1PEhRUZFarV6+fLnNo3q9vqCgoLCw8Pbbb7+xdl0vuLjlW7S3t2dmZlrsgCbq rFu37sqVKy+++KK3jeXT3Nx822232TsqkUimTJliHVjP9xlRIuno6Hj++efXr1//xhtv8ILL1dfX 79q1i3d+VVXVtm3bbqCBzmEn6tgMpKrVatFEnbfeesveRJ2ampoXX3yxubkZ/blv3778/Hz0mPv3 7y8qKmLPtPlOrgeLxWIvgiRCIBC4PV67vr7ewdGqqqqhGwk+okQCAPHx8atXr37xxRe/++477v7o 6Gg0ptgxmzdvHjLTXII7UYc7rodhGDSVrbS09L777rM3UcdgMOzbt489evbs2ebm5meffXbp0qVo D3f4D/tOvv76a1ZU14Mry+E6OEej0XzwwQc2D1ksFnuHENu3b0cDo4aCkVkn0ev1aJBlfn5+TExM c3Nzbm7usWPHlixZsmnTJrFYXFxcPG/evJSUFI1G895773V0dDz00ENarfbcuXMfffTRgw8+uG7d utjY2N7e3oyMjOnTp3d2dn766acMw2RmZs6YMWPr1q1dXV0URa1YseKzzz5jt69/zCU7UefYsWMf fvihXC5HS6dxJ+o46BsWi8XPPPMMK/Xi4mJe+eerr746evQowzBPP/305cuXjx07NmvWrGPHjtXV 1c2dOxdFlnQbVx5/OA5LHWki0Wg0GzZsaGxsfPjhhwGApumEhISFCxdWVVUBQFtbG8Mwy5cvz8vL mzRpUmdnp0QieeaZZ0pLSwsKChYvXhwcHPzb3/4WADo7O1955RUAePPNN6dPn/7999/n5uampqa+ +uqr06ZNq66ufvnll1Fsa+729cObqPPBBx/4+/vzJups2bLFcSKsC+ro6Dh79mxpaSkAoMaASZMm zZ8//8CBAwUFBVFRUQAQHh4eFxe3cOFClUp1ncZfpyfhcfDgwZMnTxqNxqeeeiokJKStre2tt97S 6/X33HPP2LFjL126tGvXLovFMnv2bDRlAwBqamo+//xzkUg0b9689PR0959kIMNP1o6Ji4tbtWrV 3/72tx07dqChltxB+CqViiTJTz/9VK1WozJ9WFgYAEilUt4wSqVSSVEUmiMJAFeuXDlw4MAHH3wg EAh6e3sffPDBTZs2oRIdd/v68chEHRaBQDBx4sQFCxZ0d3dXV1cDQGhoKHoPra2tHjGYi2dFMmvW rJdeemnGjBmoehkUFPTyyy+vWbPmiy++YBhm27ZtK1aseOmll7gTV8+cOTNlypQ1a9Z4UCEw8jwJ QigUms1m9FXm+XeGYR599FH2T95vZm94f1hYWFZWVnJyMvozICAgOTl5/fr1EyZMSE5OZrcdrHrh IuxEHa1W++6776KJOiaTaVATdVji4uK0Wm1kZKTJZEJXXblyBQCampqQWhBoNPd1Wg6eLm798MMP paWlBoMBfebQLyWTyaRSaW9vb3Nz8+effw4DjZ8xY8b27duLi4sfeugh9PnzCCNNJBqNJi8vr6+v b8aMGdYRJywWS2dn57p166RS6fz5860vT0hIyMvLe/zxx3n7586du3Xr1v3798vl8qVLl27evFko FPr5+YlEovz8fLQdGBh4/fZzJ+owDLNx40beRB2SJF2PhDFz5sytW7f+8MMP/v7+arW6vLycJMmN GzeazeYVK1aw7UUZGRlbtmy577772K+Ae3jQkxiNxsOHD7/22mulpaXcGC9ardZgMMjl8tDQ0Ece eYRdYoogCIvFolAonnrqqdOnT+/fv9/6R3QbN4fKD1P27dsXHh4+fvz4+vr67777zl63lxc5ePDg ww8/jKYeCASCDz/8EE3Uueeee9gpyp988klubq5XzbTNt99+u2LFCnbehE3y8vLsdZVqNJr169ej qtGkSZMqKyubm5sJgsjOzp4zZ85f/vIXhUJhNpvvvffe1NTUixcv7tq1SyAQpKSk3H333d98801P T49KpSoqKjKbzfPnz3d9mobTofI3l0hKS0sPHDigUCj0ev2cOXPUarW3LeIzrCfqFBYWRkZG3nrr rTZ1QtP0kSNHmpqaxo8ff+Ntc8BQzScZpqSmpqampnrbCkcM64k6Y8aMKSsre//9920eRcb72lAa V7i5ROL7DOuJOsPaeAeMtCZgDMbjYJFgME7AIsFgnIBFgsE4wWMVdzSlDi0KfCMhCEImk8XHx6P1 TjEYj+MxkWg0muDg4FtvvdVTCbqI2Wyurq7WaDTX2VuMwdjDYyLp6uqaMGGC03lnaOA3+y/a6XiP 01EY8fHxly5duv5HwGBs4rE6CYpZ5fgc7rgd623HRx2ApvINyloMxnU85kkYhkHzsLk7Uf5uTz9k hIQ6kJ8GKAO4AFAXDJACkAowDiDBCH51AKcBSgFKg6EuFSAFIBtAbQS/WvYIBH1/nr0X9y5o5Kyn HgSD4eFJkcDA7HutpCQmCSBIAAGAEEAMIBEDIwIQsJ6MAKDQQTFIhMAIAAj+EeBNZ2XvAi6sYI/B uI2HRcKCFHJ1XLeEhAG5HcQiACEAZS0FkRjEwn75EADA0RZbS0EBTW1qBoPxOJ4vbhEEwa9zS0no 9yQiADGAVApwTSdEvxREABIpSMWsjyEAiGuXsc6KTZm9KRYJZujwsCfhNk9dO8bxJAIkEra4dc2T IH8hEoEUFbeueRLWAXGSZZvCcHELM9R4UiQIVBxCO69+8iUk8hdsnUQs7ncjVlLgFrcA+HUS1o1Y b3vqQTAjBu7yZUQ/bizX4nmRsN/4axlXShL9Orha3JJwilsAHE8yoLh1rU4iuupJ2BtB/4xN7h4M hsVkMun1+paWlt7eXrPZLBAIZDKZUqlUKBRCoXBQSQ2JJ+HqhCAIEPM9ydXWLVRxJ7gKEon6W7cG 1EmEA+okwBEG9iQYHgzDmEymhoaGnp6erKwslUollUp1Ol1dXV1paalMJouMjBSLxa6v2+L51i0b 3eQSEjglKhESCb9QJUAVFn4TMMlvArbZqIVFgmExmUx1dXUkSS5YsIBdDEQul6empiYlJR04cKC+ vj42NtZ6nRB7eL6fhNd9ThAEyAZ4EgkqbqFqyYA6yYDWLcqquMVrFWAGwjWGpml2ER3MTQVN01qt trOzc9GiRdYyoCgqNzd3586dWq0WLa3mSpoeLm6xNWm2nmSxWEDMr5Nc9SQUz5OgfhK7nYlspue6 FOvWLZqmr7R2vLP9p+raBk89HWa4ICDhtozox+6/056joCgqKSlJo9EoFArviITtJ2F3AgBICODq gG3dulo9J7iFKhGvM5FTJ2FLcdx+GGtPYjKZ8ncerqGjpNOXeerpMMMFoaUvTnF41KhYB+ckJycX Fxe7XtDw5EIQdivQUgp1JlJscUvKKW4BcLoMBxS3gBjQ485N30GtnWGY6rom8cT7+vR6XOK62RBb +gSyXqXDhQIlEsmglsgakoo7t2bCMAyIr7ZUsZ5EIuIUtwb0kwwobl31JNSAJmBudzvYKm4RBBEV EaK59KMleiqQeDmYmw2mx0xptVq5XM7NIcDJJF1dXYOKlDIkFXfetBCQXG3oZbvOTWzrFr/HXSwC kwiYa7UV8pq20C24z2azdUsoFP758Ts37vz57MmNnno6zHCBoKAxVXX23PlbcrL5H+v+DFlZWRkQ EODlJmD+MRlFcMZuSQBocX9xa8DYLSGARAy0iG334tZWJPx+Ens3pSgqIlS57oXFjqMuYUYkRqOx qanpxIkTGWPSKIqyXhCdpumCgoK0tDTvNAFzvduAmYbia+UmVNyibbRuXe1MFAMt5HoSbh8k517W dXeuMSaTaejiHmF8GYZhSJIMDAz88ssvFy5cyB0kBQAEQezZsyckJESpVLr+DfV8jztYVRvYzkQ2 t1uE/a1bVl2GIrDYnmkiunYXsKq4485EDAItDJKUlHTx4sWtW7fm5ORER0cHBgbqdLqKiorCwsLQ 0NDExMRBBV0awuIWO2beunXrqlaudRle62kU9o/q4o/dkvC7YmzeHYMhSVKhUKSkpKhUqoqKisOH DxuNRpFIFBISkp6eHhoa6ufnN6hhjkPV487dCRKCOzGEhn5FCFiFsAgySqEAACAASURBVG6GFnDG B8OAHpSBaQ7cxiLBcCFJUi6XC4XC4ODg9PR0lC0FAoFQKHRj6SnP10l4/YkAwA6VZ+eTkBS3MxE4 hSqGApKdaTLAx1j47VrcohcWCYYHQRASicQjSQ3J9F2+V5Feq5MwaIPsF8nVYQHsQYIEgZ0jA1K2 eUcMZigYqoUguA1Q7FB5lO+RSBiKHSoP/Z4EAEgSaDtH7CrE+k8MxoMM1UIQwB0zz2ndQv9aiP6C 1oAuQxKAIoCxc8RRDQSLBDN0eFIk1l2YKO+K/CW8vk8XOzsZztQUmw6EdyMMZijw8GopNjMrt4qC KtnWIWStlzNllw4CFxSCRYIZOjwmEoIgWltbHTc/s1mZt1IEb2iNK66DS3t7OxYJZujw2FrASqWy oqJisEPTeR3nMPiCk8ViKS8vR3GNMZihwGOeJDs7++zZswcPHvRUgi5CkmRQUNCECRNu8H0xNw8e E4mfn9/kyZM9lRoG4zvgcHAYjBOwSDAYJ2CRYDBOwCLBYJww0ia4XrhwYffu3UKh0M/P77HHHvP3 93f92h9//DE4OHjs2LFDZx5mODKiPIlOp9u+ffvq1av/9Kc/5ebmfvbZZ4O6fObMmWPHjjUYDIO9 EDOyGVGepLS0NCMjQ6FQAEBqauq2bdtomt6wYYNAIJBKpXK5fPHixWVlZd9//73BYJg4ceL06dMv Xry4d+9egUCwaNGikpISlUpVV1d3/vz53bt319TUPP3003K5/JNPPpk5c+aoUaO8/XwY7zCiRKLV apFCEAqFQqvVMgzzm9/8ZtSoUe+//35zc3NycnJKSorRaFy3bt306dN37dq1evVqmUwGACUlJQAw adKk1tbW++6778iRI0VFRbfddltjYyNWyM3MiBKJv79/c3Mz+2dPTw+qkyiVSgAICgpqa2vr7u4+ cuSITCYzm80AYDQakUKsycnJ2bRpk0qlSk9PvyHmY3yUEVUnSU1NLSkp6e3tBYDy8vLw8HC0InJT UxP6Nzg4eMeOHXfddde8efPQMDORSNTX18dNhKIotByRWCz29/c/fPjwxIkTvfAwGJ9hRHkSqVS6 ZMmS9evXUxQll8uXLbu6YHZZWdm+ffsiIyNVKtXYsWP//e9/R0VFBQcHA8CiRYs2bNggEonuuece dHJISEhXV9dnn332yCOPTJ48edeuXeHh4V57JIwPMKJEAgBpaWlpaWm8nTNnzrzrrrvQ9vz58+fP n88eSklJSUlJQdvx8fFo409/+hPa0Gq12I1gRlRxy7Ns27btyJEjt912m7cNwXiZkeZJrFm9erV7 Fy5dutSzlmCGKdiTYDBOwCLBYJyARYLBOAGLBINxAhYJBuOEkd+6NSxAS5axsSUQgwoPgBk6sEi8 j8lk0uv1LS0tvb29ZrNZIBDIZDKlUqlQKIRCobetw2CReBWGYUwmU0NDQ09PT1ZWlkqlkkqlOp2u rq6utLRUJpNFRkaKxWLXQ2BihgLs0L2JyWSqq6tjGGbBggVqtVoul6NRZ6mpqXfffTcA1NfX4+CP XmdkehKapk0m02CXk7zB0DSt1Wo7OzsXLVpkHQmWoqjc3NwdO3ZIpVJ/f380nBlz/ZAkKRQKB/U+ R6BIaJq+0trxzvafqmsbvG2LIwQk3JYR/dj9d9qLlUxRVHx8/OnTp/v6+nAl3iOQJIlWUbzZRWIy mfJ3Hq6ho6TTl3nbFkcILX1xisOjRsU6OCcjI+Ps2bPh4eG4Bu8RGIbR6/Vnzpy55ZZbXL9qBIqE YZjquibxxPv69HpfLnGJLX0CWa8yMNDBORKJxGQySSQSe94GM1ikUml7e/ugLhmBIiEIIioiRHPp R0v0VCB9+QGZHjOl1WrlcjlaS59txWKX1u/q6iIIQiwWeypG5k0OwzB9fX2hoaGDusqX85CbCIXC Pz9+58adP589udHbtjiCoKAxVXX23PlbcrJ5kcCgP1RLeXk5RVG9vb24jcsjEAQhk8nS0tJ0Op3r V41AkVAUFRGqXPfCYoHAp5/OaDQ2NTWdOHEiY0waRVG8zhCGYWiaPn369Pjx42NiYnCdxCOgeGx6 vX5QV/l0NnIbk8nk+59eFBYvMDDwyy+/XLhwIQp/xx4lCGLPnj3BwcFisRgtbYHxFrhh0Wsg15+U lCQWi7du3VpSUqLVakmSNBgMJSUlH3/8sUgkSkxMlEql3rb0ZmdkepLhAkmSCoUiJSVFpVJVVFQc PnzYaDSKRKKQkJD09PTQ0FA/Pz/cQ+J1sEi8DEmScrlcKBQGBwenp6ej+rpAIBAKhWKx2NvWYQCw SHwBgiBwC68vg105BuMELBIMxglYJBiME7BIMBgnYJFgME7AIsFgnIBFgsE4AYsEg3ECFgkG4wQ3 e9x1Ot3x48dRmDVrKIpSKpVTpkzx8/O7DtswGJ/ATZEUFRWp1erly5fbPKrX6wsKCgoLC2+//Xb3 TXPGa6+9VldX9+9//3voboHBgNvFrebmZgchoCQSyZQpU9ra2mweffnll1988UW0XVhY+Nvf/vbr r79Gf7711ltPPvmkwWBwzyoMZihwUyQWi8XxvD+BQGBvEYbExMTOzs6uri4AuHjxIgBUVFQAAMMw tbW1sbGxePQrxqdws7jlysKb9s5JTEw8fvx4TU1NZmbmpUuXpFJpVVWVxWJpaWnR6/WJiYkAcPLk ya+++qq9vV2tVj/yyCMqlcpgMDzzzDP33ntvaWlpXV1dXl4em2BVVdWbb74ZFxf38ssv40XcMB7H TU/iykwge+cgGWg0Gr1eX19fn5mZqdfr6+rqNBoNOtrQ0LBp0yaj0Th58uSLFy9u3LiRdUp79+6t q6sbNWoU+pMgiL6+vk2bNslkshUrVmCFYIYCL3iS6OhoqVRaU1Nz6dIli8Uybdq0goKCioqKjo4O AEhMTPz5558tFsuSJUvGjRtH0/Qvv/xSW1sbEREBAFKp9I033pDJZCgpiUSybdu2jo6OF154QalU uvcsGIxj3PQk1yMSgiDUanV9fX1VVZVYLE5OTo6MjKyurq6rqwsKClIqlai6gjJ9UFAQALCriUVF RbEKgf6WaJIk0WkYzFDgheIWACQmJra1tVVVVSUkJJAkmZSU1NDQcPny5dGjR0O/PJAw0L+sl+Cl abFYZs+eTdP01q1b3XsQDMYpXvAkAJCYmMgwTGlpKVIFEklnZyeqrkyYMIEkyR07dnz++edHjx4N Dw9nKyF860nywQcfnDp1anl5+eHDh917FgzGMW6KRCAQ0DTt+BwHIkEOxGw2I5GMHj3abDZDf50+ PDz8mWeeEQqFR48eTUhIWLlypWPHtWjRIplMtnPnTq1W687DYDAOIfbs2ZOTk+NgTbuSkhLrEwoL CyMjI2+99VabDUo0TR85cqSpqWn8+PGeNxmD8Sg6na6ysnLMmDH2TnCzdWvMmDFlZWXvv/++zaMk SSqVyrFjx7qXOAbjU7gpEqlUOm7cOM+agsH4JnioPAbjBCwSDMYJeAVH38JsNtfX19tbRh6t9Rgd He2bga9omm5qarIX+gNFIwoLC6Moymg0DqNFK7FIfIuGhgaZTKZWq20epWm6ra2tsbHRXseRd7ly 5YpCocjKyoL+aETcf2marqura2lpQYsdY5Fg3KS3t9eBACiKCg0NbWlpuZEmuU5fX19mZmZXVxcS Bje6HQrGEhsbe+rUKYqiVCqVd00dFCOqTqLT6b755ptff/310KFDtbW13ENdXV3nzp3jnd/e3n76 9OkbaKBLOB7N4HSsg1ar/eWXX/r6+tCf1dXVxcXFZWVlAKDRaK5cucKe2dPTg2byeAqLxcK6Dh6o OxiZoVKp3Biv3dPT4+AoUqbbljtmRIkEAIKCgqZOnXrbbbeVl5dz9wcEBGRkZDi9vKCgYMhMc4nr HO9D03R1dXVgf0Tf1tZWnU6XlZWVkpJifa1cLkcjHqqqqlhRXT8kSZIkyWqDdSk1NTU6nY6maXsV Kq1Wa/0hQzAMY+8Qory8fOgiLY/M4pbJZEK/xJEjRwIDA3t6ekaPHl1TUzN27NgTJ05QFNXY2Jic nKxSqTo6Oo4dO4ZyksFgaGpqKiwsHDt27C+//BIYGGg0GsPDw9VqtU6nO3XqFACEh4cnJCScPHlS r9eTJDlp0qRTp06x265k8SGFoqixY8eWlJSgP1taWqKiorgnXLp0qaGhAQAyMjJ6enoaGxtjYmIa Ghq6u7vj4uICAgKu5+7Ih7S3t/f19cXGxrJuxGKx1NTUGI3GsLAwnocfFow0kXR0dBw9elSr1aK+ TovFEhQUlJ6ejkYT9/X1MQwzYcKEI0eOxMbG6vV6gUAwefLk5uZmNP3Lz8/vlltuAQC9Xp+dnQ0A P/30k1qtvnjx4ujRo1Uq1X//+9/4+Pj29vbbb78dBfvkbl8/1+lJeOj1+paWlra2NoIg4uPjASAi IiI+Pr62trapqUkulwOAn59fQEBAQkICdw6C2zAMo9frdTpdbW0tqlwxDKPRaAwGA2qXq6mpcTGp urq6K1eu0DSdkZEhlUp1Ol1RUZHZbE5ISAgNDe3s7KyoqGAYJjY2Njw8HF2i1WrLysooioqLiwsO Dr7+x0GMtOIWWsooNzf37NmzyP9yp5rI5XKCIE6dOhUUFITyhEKhAAChUIhGWLJIJBJUbEAlXVR8 P3HiBEmSRqMxKyvrxIkTqETH3fY1SJJEntBoNKLRnygCo1QqHWwEWldA7wrdAunEaDRWV1cbDAah UBgZGYmC37qYWkxMTE5OTkxMTGNjIwBIJJKcnJzx48ejdRHKysoyMzNzcnKqqqrYS1pbWyMjI8eP H+9BhcDI8yQIkiQtFou9mhxyETZhL+F9reVyeWRkZGhoKPpTIpGEhob++uuvMTExoaGh7Pb1f4w9 60n8/f2NRiMAsG8D1T36+vq4LbC8wL/Xg8ViCQgIsFgsqNBVWVkJACRJRkREoDYu15Oqqalpb2+n adrf3x/6n1ooFAoEApPJpNPpSktLof+3RpdER0eXl5c3NzenpKR4xDEiPCYSs9nc2Njowfqfi6D+ tYiICLbwc+TIEaPRqFarrZtQGIbR6XQ///yzUChk67JcgoODf/31V1Ti4pKcnHzy5Mny8nKRSDRu 3LiCggKKokQikUAgOHLkCNr2wTC5MTExFy5cqK2tFYlEAQEBHR0dBEGcOXPGYrFkZmay7UUhISEX LlwYPXr0dU6BRhowm81KpZJhGDQfGwDCwsLYuRUu6oSm6cuXL0+ZMqW9vb21tZXdbzQaaZoWCoVS qTQtLY3bBsAwjEgkysjIaGlpqa6uTk9Pv55n4eLmUHlr6uvrUVTywd2eIHhvzXqPYywWi1arNZvN sbGxTk8uKytTKBRRUVFdXV3l5eUTJkwYlLU3gEuXLo0ePdqxrygvL0etUr5GaWlpcnIyMl4gEHR1 dRkMBplMJpfL2dJsaWlpWlqazcu1Wu2pU6eQB4iIiOjs7ESd9yqVatSoUceOHROJRBaLJTExMSgo qKOjo6KiAo03T0hIqKqqMplMMpnsypUrFoslPj6edftOGaqh8tb09vbGxMS4WNLlKsGVbccEBgbW 1dW5cmZQUFBFRUVjY6PZbE5KSnLlkhuMVCptaWkJDQ21qROGYVpaWnx28ViUR8PCwgiCMJvNCoUC VfmQQhiGaW5uRq0FNvH39+cu+RkTE8M9OmXKFO6fSqWS+41jxyjwrvIIHhOJg0Kt0+zuYiHbQTou FqlVKpWP9/WqVKrW1lZ7fXyobMk25vgaERERTU1NqKpgDUEQMpksOjr6Blt1/Xi44m6diQmCOHny JEmSNE339fXp9XqDwcAwjJ+fn5+fn0KhQO7VZDLRNE3TNMoHYrFYKpUKhUKj0djd3d3b29vT03PL LbewzU0jFaFQiBZPGo6IRCJXCr3DDo+JxKY80E6SJCmKslgsFEVRFIXWR6UoCrWxojNRGwU7foH1 LWyHlEAg4O7k3W5kKwfjXTzpSZh+UG5mh38iPbD/IsEIBAKKoriDF9jFhUkOwBnmAP1iYAtX7C08 +BQYDA9PehLWb0B/9kWHkDyQJ0FNgVQ/AoGAdSw0TSM9cJ0Mu4fbnssdRccq01MPgsHw8HxnIptf 0QbrKCgO0K8cdvQbqmygrM/6DXabJEnWz3DT547HxmCGCA/XSbgOBDiffKQBbp2E5zHQgAWkH65O 0Jms0wBOhYRXqPPUg2AwPDwsEpvfdbbOjcpaAoGAFQzSCfQHPDGbzdZVEba4xRMD16VgkWCGDs83 AfN0wlbN0SGKolCGZt0IW9yyWCxsfZ3nRtixhtYixPLADDWe9yTWVQW2EoIUwhUJ2+bLLa1xqyLc 2jy3CRj6HQi31QuD4dLT09PU1NTd3W02mwUCgZ+fn0qlGuzIKRiizkRelkW5HBnKDpZmy1ool3Mb r7jtv0gzrMCc3guDQWg0mo6OjtjY2Li4OJFIZDQaW1tbq6urAwIC4uLiHK8uzcNj80kcVAyQE0Ad I9zGX1Yn3NmebOcJ9Nfgrctgrt8ac3NSWVnZ29s7ZswYf39/i8ViMBgsFktwcHBGRoZOp6uurh5U akM+n4TN6GazGfkE1pNwPQb0N3DxehKhv1rCNny5ogeapk0m09BNesb4Mt3d3W1tbVlZWWgWDZtn 0JCO0aNHnzlzJiQkxPW5ykM4LIUF5W9U1uLu5DoNkjMahetY2Oq+40gP3JRpmm5u69r0n2PV9Vcc XIIZqUxNU82amE7TNK/Fla3BhoaG1tfXe0Ek9mAYBmV61NEO/RmaW9YCAORD0CVsbR44joh7rWNM JtO/vz7RCqFR0+4coofC+DJq8YngICUaLMsreiDfEhwcjKYEu8iN8CS8JiwEr6bBNgFDv1fh9buT Dsf/8vpPNJdbVBNmeuCpMMMQyqIXiUSoz43XAQ39X22DweB6gp5fCMK6NwPV0dEwLbbiLhQKeRV3 ttOQ7WFkhcQbu4WwVz8hCCI6LFirOcVYnMTiwoxIjIxQp9cDZ2Y/+y/a09fXN6jFlD08wJGtJ3GL gyh/cwtUMHBcFrsTVbVJzpguon8UPbcJmOc3eK1bQqHwuQdv/+jrEyVHPvPU02GGEfVpIZGNV2Kj I63rJOhPrVY7qN4ST9ZJrIuA7H7olworCeRVuMUt7vnc1i22Bu+iGRRFhYcEvrbiLnZMJOamoq2t 7ciRIxFhoeTAuUlsG9fly5cdzGi3xsOeBLWy8fajzIq8BFsYYwtRrBjYAY485VgPK+alD1Y1IpPJ ZDKZPPVomOEFRVHBwcGXLl1KSkrilTIIgqioqFCpVNzV2JwytIvTMZy1k7kdiNbdiNx+Q3abWyQj B44FZrHXw4i5mUlNTQ0ICDh37lx7e7vRaCRJEkWtOHv2rEKhsLmalAOGcBQwO6oK5W9uXyHYqpOw fX/cVi/rOglvsBYenIKxhiTJ1NTU8PDw2trampoak8kkFAqDgoIyMjLcWNzR82O3mIHTd4EzLoub v3kVDxjYCmzdLgwAqHuI60BtjgvGYBBKpfI6l9tDeH76Lm+sLnAq5SRnRUpepQrBG+bIXoLciMlk Yt2LzYYLDGYoGMLORDYfs1mfrZojSIcjMXluxMGN7O3EYDyCh5uArXcyDKPT6bgdn7zCmE0YqyVX wH7vIQYzpHhyqLzTQ9aVbHYPW1qzedT1W2AwHsdjIiEIwvUl5dncT1hNW2f3uJ7v7cVExmA8gsdE IpfL29vbB/tFt1eTGVQKbW1t1xnHDINxgMfqJAkJCRqNRqPReCpBFyEIQqFQJCQk3OD7Ym4ePCYS sVicnJzsqdTcprm5+dy5cyRJikSinJwcsVjs+rWVlZUymWz4rleNGSJGVMxEk8lUXFw8derUGTNm jB49GsXLdZ2EhISIiAiz2TzYCzEjmxE1Tra5uTk8PBx5D5VKVVxcbLFYjh49SpKkUCgUi8WZmZkt LS3l5eU0TcfExKjV6tbW1vPnz5MkmZGRgQLSdnV1Xbly5dy5cx0dHRMnThSLxUVFRQkJCR7pu8UM R0aUSAwGA7d8JRKJUCyU1NRUpVJ5/Pjxnp6ekJCQ0NBQmqZ//vlntVp99uzZqVOnoik4TU1NABAb G9vb25uRkaHRaC5fvhwfH9/d3Y0VcjMzokQiFovZYJkAYDQakWZQyE+ZTNbX12cwGGpqaoRCIRog Q9O0vUlq0dHRx48fl8vlYWFhN8R8jI8youokKpWqqakJBWVuaWlRKBRoVAtSjlarlclkZ8+eTU1N TUlJYdej4M08QWtWAIBAIJBIJNXV1UMRhg8zjBhRnkQoFGZlZR0+fJgkSbFYzMZrb25uLisr8/f3 l8vlERERBQUFAQEBKAxdRkYGijHNRjT28/PT6/WnTp3Kzs4eNWoUmoHgtUfC+AAjSiQAoFKpZs2a xduZkJDAhkVOSUnhzrkJDQ1lI76ys9VmzJiBNvR6PXYjmBFV3PIsxcXFNTU1bOxjzE3LSPMk1kyb Ns29C7OysjxrCWaYgj0JBuMELBIMxglYJBiME7BIMBgnYJFgME7AIsFgnDDym4AxNy0+GlgUg/ER fDGwKAbjOwyzwKJeAQcWvZnx3cCivgMOLHqTM/wCi954cGDRmxyPBxYdgXUSFFhUETvW24ZgvAMK LIr0YLFYeBuMLwQW9To4sOhNju8GFvUdcGDRmxyfDizqI+DAojc5vhtY1KfAgUVvZoZZYFEMxiv4 aGBRDMZ38OnAohiM7+CpwKK4uIXBOAGLBINxAhYJBuMELBIMxglYJBiME7BIMBgnYJFgME7AIsFg nIBFgsE4AYsEg3GCm8NSTCZTdXV1Z2enzaMkSfr5+anVapPJVFlZOXYsniSIGca4KRKNRhMZGblg wQKbRw0GQ0VFRVVVVX5+vlKp9KBIGhsbN23a1NTUlJKSsnr1ak8li8E4wE2RtLe3z5kzx96aPUKh MDo6esWKFZ2dna+//rr1CSdOnNi7d29bW1toaOidd9556623unjfb7/9tr6+fvLkyUlJSe5ZjsEM FjdFQtM0SZJoISPro93d3UuXLm1qasrLy7Oe3dLW1rZ582aFQjFlypSqqiqz2ez6fVtbWwFg6dKl KOo0BnMDcFMkyIcQBGE0GoVCIXeGZE9Pz9KlS0tLSxcvXpyYmGh9bWNjo8Viue222+655x7on1S5 du3atra29957DwBWrlypUCjeeOONM2fO5OfnP/300//5z3+io6MjIyMrKirQCcuXL09ISPj888+r q6tJkpwwYcJDDz1EEITJZNqzZ09BQYHBYFCr1c899xxFUV9//fXhw4dNJtP48eOXLFkyqEUAMBg3 W7dQzs7Pz1+2bFlPTw+7GgWrkGXLluXk5Ni8NioqSiAQ/PTTT6dPnwbOFGR7bN68mWGY8PDw+Pj4 kJAQAFi6dKlarfb39zebzfPnz4+Pj//xxx9Ravv37z9w4EBwcPCUKVMCAgIEAsEvv/zy9ddfp6am zp49++eff96/f797j4y5aXFTJMiTXLhwoaio6Kmnnuru7gYAViGZmZlr167t6uqyea1SqXzyySfN ZvO77767YcMGvV7v+F7JyclvvPHGokWLsrKy/P39AWDatGlhYWESieSll16aO3dubm4uADQ0NADA mTNnAOC5555bunTp8uXLAaCgoIAgiMWLF8+dOzciIgKdgMG4jpvFLTS/fuLEiQcPHiwqKnr66afX rVv3zDPPlJaWqtXqjz/+2GKxOKhs5OTkJCcn/+///m9BQcHevXsXL17MPcprD0hMTLTpbcrLy7/8 8svm5ma00BhN0wDQ09MjEonkcjl7WkdHB8Mwzz33HPpToVC498iYmxb36yQMwzz22GNarfbdd98t Kiq64447TCaTQqFYv349yqP22r56enr8/PwUCsVjjz1WUFBQV1cHAAKBwGQy0TTd19fHW12Poiib 6WzevLm7u/vZZ5/t7Oz86KOP0E65XN7W1tbb2+vn54f2BAYGtrS0rFmzBq0wZC81DMYe7nsSADCZ TKtWrWIYZuPGjWgJn3feeSc5ORm1fXGXcuFy7NixAwcOJCcnt7e3A4BarQaA0NDQ2traDz/80F4h zRq02CtJksXFxezOSZMm1dTU5Ofnx8XF1dbWvvzyy5MnTy4vL//uu+8yMjK0Wq1SqRw1apR7T425 OXF/IQidTkdRFNKJWCw+c+bM7Nmzp06dikpZRqPRnieJi4uTy+VFRUUSiWT69OmoR/Kee+5pamo6 e/ZsTk5OUFCQKxEk7r333h07drz33nsLFiy4ePEi2jlr1iytVnv8+HGNRpOeng4AU6dO1el0hw4d KikpUSqV9957r9uPjLk5Ifbs2ZOTk+Og9lxSUmJ9wsmTJ1Uq1YQJE1DphS3DoIoBTdOFhYWtra1Z WVlDaTwG4wF0Ol1lZaWDNR3d9CRpaWllZWWffPKJzaMkSSqVyszMTPcSx2B8CjdFIpVKx40b51lT MBjfBC9OxwcNcEY9P5iRB0EQMpksPj5eLBa7eAkWCZ/q6urg4GDXx1x6BTayGbvhdXzQJJuYzeaq qqrq6mrXVwTGIuHT1dU1ceLEtra2Ib0LykkoWBn3X+szuRmOl/+4+RKdyabAy6bc0waFzQu5d+HG ALFnHu8qXvq8N3ADNKZWqy9duuT6+VgkfFADnRuRe9lf15WMy452432ArXOSdY7knczeiB11ysYb 4IXmcAPH8uDlbNYe7htwcGvWZt57cPz4vMTdUxT6lV0Ei4SP058WbGV35BbQHlZgvN+P+3vb/Mmd GsZ+ce2ZzbuL0wStdzq+iqdMe4mAfc3zzuG+PVdeCE//vO+R40fjpeP4BC5YJHws/YCdHMMLCsPb af0RZfXjOGNZlzR4TgZ9d7n/Wt/X2k5umtaZycHTWfsiexdyHxadxrXT2lvyLuQJj/dy2Au5vp3r LXkvkHehTVPZ39dFsEj4cF+09Q/m4s/AO8G6/GPvErAqtoGtiKjceQAAIABJREFUjyvvO+0g+9r7 1tq80Np43pfe5o14lli/QN6DgMvS5QrMlSKcdYlUr9fbbMUalCcZUaulvPrqq+zgyFdeeUWj0eza tWuwiTAD4xq3tbVt2LAB/UnTNBvmGAAqKyu3bdvG7kFw//yf//kf1i+xR22ez707u8GF3cN+Arnf QpsG8NJkv7681LjwjjK26gnWj8k9yjXPOjXuybw0rV8L76XxXp2987kWVlZW5ufnX7x4kVs6sH7n ThlRIhkzZsyFCxcAoLa2NioqKi4u7v777x9sIry4xmDlB2xmDu5pYOuTzG7zMit3Dzcp4JTTwFY2 tU6cvYT74Wc432z2EO9MHrwzwaoNineUZ4nNZ+E+jvWzcA/x9lg/pvXvwv7JVQ76RMpksi+//JJt y+IKD1xmRBW3srKyfv3113Hjxp07dy4rK6uqqurYsWNLly49cOBAaWkpADz++OP//e9/ExISMjIy XnjhhdWrV4eFheXl5SUlJclksjvuuAM4vxMvcbRn69atOp2ur6/vd7/7HQCcOXOmtbXVaDQ++OCD kZGRBw8eLCsrA4BHH32UnbiydevW7u5uiqKefPJJNMiNm3fZe6FQsVw1sj+k9SGuSTwjeSdwNePe W0V3Byvl2/xGWJvHPgvvQwP9skGHWHEynJIkM9CV2fwG8T5hqCKEFGI0GtFI8927d993330JCQm8 S1xkRIlErVZv27YNAM6fP79y5cqmpiYA6OnpKS4uXrNmTUFBwaFDh5KTk8vLy1F0yQsXLvT09Iwe PXrmzJlsVmBdM/qpuG2UALB06VKKovbu3VtRUSGXy8PDw1euXFlXV/ftt98+8MADxcXFL7zwQlFR 0c8//zx//nx0uUajWbNmDSoZs8mCVabnfdvYXxEtuGHvka1zHli1ltprbeP5GcZWe5RNj8d1fbxb W/sQ9jT2TRJWTWQwMONyjzK2inzW92LFhv4cNWrUCy+8wFMs9ze9eT0JQRCxsbFlZWUURclkMrSz ra2ttbX1gw8+MBgMMTExCQkJP/zwg0AguOOOO7777juj0ZicnIxmBSN4vxD3l7BYLN988w1N07W1 tTExMQCA5tyHhIS0t7e3tbW1t7dv3rzZaDRGR0ezVy1evPjDDz9MTk5GngrjC9y8ngQAsrKyvvrq q+zsbHZPcHBwWFjY008/ze4hCKKhoWHBggUkSdbW1s6dOxcVh5Cu2G8Mt2RssVhIkiwrK+vp6Xno oYf27NmD3nJzc7PFYmlqagoODlYqlaGhob/97W9hoLoSExNXrVq1YcOG8ePHowWWCDtNQLxiBtpG M9jAzqfUpg/hfYN55Tqu6wBb337eNtcd8bwN7yPioLjFdt6xLoVnLWHVRMbdb7MMxjXSgRfitubb bPZwykgTSVpa2gcffPDEE0+we+Ry+bhx495++22BQDBr1qyMjIyoqCitVksQREJCQnFxsUgk2r9/ P7dOgi5kf56qqqq8vDwAmD9/fl1d3ZYtW9hcGxYWtmXLlra2toceekgul48dO/Zf//qXQCC4/fbb 0fyEvr6+Tz75RCgUymSywMBAlDKv/ENYVdxhoAAcFNJ4e9j8BFY53mYhxykEp7sDBuZFXk61WXmw dwK7355uHcjA3iM4PtOmSS7i5qSrEcz3339/1113oWWOrX9C61YdFuuPur1b2GsXspmOzZStKw/W VQtelcP6U+3APJtn2kvZ2hKu5p0+js1EHJjnIGXeafaUHBgY+PXXX8+ZMwcdGqpJVyMYXk82DCy3 WP8k3Jq3dcsS90+wIySuY+GWRsDW59m6+MFNn2skN6fa+5bz9Gl9iFtW4aVms8TCtd/6Xdl8EOsn tfnSrNO0KQPuUZvuiPfOXQGLhA969fZyvPUhsCot2PzMW+cJxzmAmzL37qxc7f3MPNu41lqsxto4 +GDz5OFAltYGcEtN3Kzs2D/YfHvEwGYr3i1goPBYqqqqvvrqK7YiRFHUkiVLIiMjYWAvp4tgkfCx 9yF0UI6y/lF5Z/J+FetKCFuQs/c5ZLOahTMsCmwJ0ub326YwbGYUm77FZka0vpD1MGx5jLXTZr50 ICF7RvLkZ88YtVp9zz337N2718/PT6/XL1q0KCIigns+9iTXhdPPjL2j1nmRt8fmydxqsc3EuYlY OEMGYWBecVz3cP3D6eBMB3UVdg93v80av/XtuM9i/UKsbeOqzsEbjo+Pv/vuu7/++uv7778f+RDr m7oIFokNaJoe1EtksX77jvMc2K8NO74KBorQuqDitDHARRxXsrkStbbH6e1sPrsrVzn4k0tcXNzv f/97iqKsz8Ge5LpQKpWFhYWJiYlsH/wQwfsSu56xwFYthZdHuXrjpelUh46v4n7O2XoL1yG4InXr x7G+o0ewXrDTYrEcP348NDTU9USwSPiMGzfu7NmzBw8e9LYhmCGBJMmgoKAJEya4fgkWCR8/P7/J kyd72wqMDzGihspjMEMBFgkG4wQsEgzGCR6rk3hr4UNi8AvyYTCDwmMi0Wg0Xln40Gw2V1dXazSa 5OTkjo6OV199ddSoUXq9/vbbb+fWv+vr648dO8abzctOXbzBNmOGFx4TSVdX14QJE5wufGhvGKmD PU6bz+Pj49lJzPHx8c8995zRaPz73//OFUl0dLQr8903b96MIi1iMCweEwmaluT4HG4fk/W2g6OO dWI9wVWv16OQdPn5+TExMc3Nzbm5uceOHVuyZMmmTZvEYnFxcfG8efNSUlI0Gs17773X0dHx0EMP abXac+fOffTRRw8++OC6detiY2N7e3szMjKmT5/e2dn56aefMgyTmZk5Y8aMrVu3dnV1URS1YsWK zz77jN0e6v5HjFfwmEgYW1OHUV5vTz9khIQ6kJ8GKAO4AFAXDJACkAowDiDBCH51AKcBSgFKg6Eu FSAFIBtAbQS/WvYIBH1/nr0X9y7cUaIajWbDhg2NjY0PP/wwANA0nZCQsHDhwqqqKgBoa2tjGGb5 8uV5eXmTJk3q7OyUSCQoHmpBQcHixYuDg4PR1MLOzs5XXnkFAN58883p06d///33ubm5qampr776 6rRp06qrq19++WWpVAoA3G3MiMRjXz7uqATeIAUQk4SYIMUgEINQDGIxSMQgFoFYAGISxABiIMRA sQeFIBaAmLA6Yp0yb2QHAMTFxa1atepvf/vbjh07UGC6uLg41kiVSkWS5KeffqpWq9FM2rCwMACQ SqW8aKZKpZKiKIqi0HDrK1euHDhw4IMPPhAIBL29vQ8++OCmTZu+++47AOBuY0YknvQk3D9RGelq eFEJCQAEAAUgBBADiEUAQgAKoH/oav9BkRjEQgABAIkOkgCCq5fxBmBz78i7u1AoNJvNyK3xikAM wzz66KNcOx08BUtYWFhWVlZycjL6MyAgIDk5ef369RMmTEhOTma3kfAwIwzPF7fYeRHX8rGUBCBQ bhcBiAGkUoBrOiH6pSACkEhBKu4XCRAAxLXLuGP72G3u0n0AoNFo8vLy+vr6ZsyYIRKJeEZaLJbO zs5169ZJpdL58+dbP0VCQkJeXt7jjz/O2z937tytW7fu379fLpcvXbp08+bNQqHQz89PJBLl5+ej bXYKO2aE4bE57keOHJk3b15HRwdwmrDQoc7fnDBBTBPISgGqAKoAmgKBUQOoAVIAYkwgawQoA6gC qAyEK2pg1ACpADEmkDYC9F+m3Px/3PIVKxWlUrl//35XWp/37dsXHh4+fvz4+vr67777DjdkYeBG znFnKwmE1ZoxICGRvxCwxS1xvxu5Vqi6WhbjFrcABpTS2PS59+JVThyjVqsPHDhw9uxZvV7PrgOA wTjG8yJhrGfPSEmiXwdXi1sSTnELoL9QJeQVt67VSdBlnBsBZ6Ks6yJJTU1NTU311CNjbhKGxJMw vClBYr4nkYiBEfVX3AmugkQikAiB4ddJhAPqJMARxqA8CQbjBp5v3bLRTS4hgVOiEiGR8AtVAgAB XG0CZgRsuxc5oLgFAxugrJuAMRiP42GRsD6Euy4ByAZ4EgkqbqFqyYA6yYDWLcqquMWbQcoMxFMP gsHw8HBxi7sgAMJisYCYXye56kkonidB/SQDPQmn4s5b7IetmQD2JJihxMMiYftJ2J0AABICuDpg W7euVs8JbqFKxOtMJPidiTBwlCT2JJihxpNz3O1mVimFOhMptrgl5RS3ADhdhgOKW0AM6HHnpo9r 7RincANfsUUbNwahDknFnVszYRgGxFdbqlhPIhFxilsD+kkGFLeuehJqQBMwb70zXNzC2MRkMun1 +paWlt7eXrPZLBAIZDKZUqlUKBRCoXBQSQ1JxZ03LQQkVxt62bFbJrZ161rNQ9Bf3DKJgLlWWyGv aYvpX0WTd1PAIsFwYBjGZDI1NDT09PRkZWWpVCqpVKrT6erq6kpLS2UyWWRkpFgsdn1xsCHxJPxj MorgjN2SANDi/uLWgLFbQgCJGGgR2+7Fra1IbCxkhkWCscZkMtXV1ZEkuWDBAnb8nlwuT01NTUpK OnDgQH19fWxsrPXQPnt4uOIOnBlUbKELxNfKTai4Rdto3bramSgGWsj1JNw+SM69rOvuXGNomjaZ TINayhIzMqBpWqvVdnZ2Llq0yFoGFEXl5ubu3LlTq9Wi2RCupOn5HnewXqe5vzORze0WYX/rllWX oQgsIptjt0TX7gK2ukpYS2iavtLa8c72n6prGzz1dJjhgoCE2zKiH7v/TnuOgqKopKQkjUajUCi8 IBLeBjtm3rp166pWrnUZXutpFPaP6uKP3ZLwu2Js3h0ATCZT/s7DNXSUdPoyTz0dZrggtPTFKQ6P GhXr4Jzk5OTi4mLXCxpD1ePO3QkSgjsxhIZ+RQhYhbBuhhZwxgfDgB6UgWkO3ObtrK5rEk+8r0+v xyWumw2xpU8g61U6nNsjkUgGFd7Q83USXn8iALBD5Sk0PAuApLidicApVDEUkKJ++QzwMRZ+uxa3 6MUVCUEQUREhmks/WqKnAokXO77ZYHrMlFarlcvl3EoycL6kXV1dAoHAa56Eu33Nq0iv1UkYtEH2 i+RqmZA9SJAgsHNkQMo274gQCoV/fvzOjTt/Pntyo6eeDjNcIChoTFWdPXf+lpxsfn9df56srKwM CAjwWhMwt/xzrYFLfM2TQL9IGIodKg/9ngQASBJoO0ccxbLg/klRVESoct0LiwUC7EZuOoxGY1NT 04kTJzLGpFEUZb2GAU3TBQUFaWlp3mkCtt7DmZl41SWgfy1Ef0FrQJchCUARwNg54qhXhLfHZDKZ TCZPPRpmGMEwDEmSgYGBX3755cKFCwmraMZ79uwJCQlRKpWuf0M9KRJr/4XyrshfwnN8rgdb4rUm 2+s0xJ2JGARaGzopKenixYtbt27NycmJjo4ODAzU6XQVFRWFhYWhoaGJiYmDWifNw6ul2Mys3OIg qmRfXWqIg/UyjcTA2K3gUCFYJBgWkiQVCkVKSopKpaqoqDh8+LDRaBSJRCEhIenp6aGhoX5+foMa 5ugxkRAE0dra6vjebFbmrRTBq1e54jq4tLe3Y5FguJAkKZfLhUJhcHBweno6ylcCgUAoFLoRfcBj IlEqlRUVFaNHjx6URh23U7mCxWKpqKhQqVSDugoz4iEIQiKReCQpj4kkOzvbK/E43YgTicEMCo+J BMfjxIxUcKgADMYJWCQYjBOwSDAYJ+DAor4Feo2dnZ02j5Ik6efnp1arTSZTZWXl2LFjb7B5jhnW xjtgRAUWvcG3Hgo0Gk1kZOSCBQtsHjUYDBUVFVVVVfn5+Uql0tfy2bA23gEjLbDocKe9vX3OnDn2 RnELhcLo6OgVK1Z0dna+/vrrN9g2pwxr4x0w0gKLXrhwYffu3SiqzmOPPebv7+/6I/z444/BwcHe /cLRNI0ex+bwtu7u7qVLlzY1NeXl5dmMqmUdpHv9+vVPPvkkCrPqlJKSkrKysvvuu88rxgOARqPZ vn07SZIEQTz//PO8gbroWZqbm29wYPERFVhUp9Nt3779pZdeUigUpaWln3322e9//3vXH2HmzJkA YDAYdu7c+cgjj1znC3EP9AIJgjAajUKhkOtae3p6li5dWlpaunjx4sTERHsp2AvSfQO4TuMNBsPm zZtXr14dHBzsyjf3hjFU80mA6wHEJLuk0IDQC7ZC9ThYC9jm6BXuCMjS0tKM/9/emUc3cZ0L/M5o 3y1Zkle8Gy9gYzAEzGYwISGkzUlKC4UQAo8QXrMR+trmvZfTnqanTdssOM7WJrRhyQqEktAkNAkh LKFlMdjgHe+7JVmWZVu7NPP+uGXeMKPNsmzL5v7+0BnN3Lnz3Tv3u/ebmXu/Ly9PJpMBAHJyct5/ /32Px/Paa69xuVyRSCSVSjds2FBfX//ll186HI6FCxcWFxffuHHj008/5XK569atq66u1mq1nZ2d NTU1H3/8cXt7+86dO6VS6b59+0pKSpKTk8NVV36ABXn11Vf/9a9/vf3221KpFFYj1cgefvhhPzGZ KKgg3RBGiO2ysjKtVmu1WnEc37Ztm9vtfuuttzwez8DAQDCZj5PwdXV1OTk50dHR4KZ18Pvf//7Z Z58FAPzmN7/51a9+FbJgYyTM0XcpbnnGEOJACDAh4AgBTwgEQiDgAyEPCDlAiAEhoB+EgUWFXCDE 4UFcCLj/Ps3PZHt49aGhIaghEJlMNjQ0RJLk97///e3btw8MDOj1+qysrF27dj399NPfffcdAODI kSOPP/747t27k5L+7Tpg0aJF6enpP/zhDxctWlReXk4QRG9v78RoCLjZGdfW1paXlz/66KPwbSHV yPLz83/5y1+azWY/OcAg3X/4wx/oQSFhiO1du3adPXsWhlxdtGjR9u3bDQaD3W6vqKhITEx86qmn li5dOonCDw4ORmZk1nAqCT3G5y3P3CIciDBcBLgiwBcBgQiIREDEByIeEHGACMNEgDoIfQGLuECE AxHARAD7/9O8zhT2eDzUReVyOf0d9MjICHwmUSqVAACVSmU0GltaWg4ePHj8+HEYwNrpdIrFYq8l mj9//rVr1+rr62fNmhWuWgoInPa/cOFCAEB5efnOnTu7urpgI0tLS3vnnXcIgoCS+4IdpBuwQmwD ANRqNQBAIBA4HA6j0QhniGo0mkkUXi6XDw0Nec12LFKNnTCPJHQz9P99NdBGEq4QCIRAJABCPhBy 6SMJHC/4fCBijiTUAOTN0Rbd3MrJyamuroaNoKGhITY2FjpW6uvrg7/R0dGHDh2677771q5dC7s9 Pp9vtVrpBeFwOHBVo0AgkMvl586dg3d9YoAKv3Xr1ieeeAIAUF5eftddd9XV1clkstLSUmhBBePB gB6kGwAQExNz991379y589lnn1UoFODWVyPR0dEGgwEA0N/fP4nC5+TkVFVVUXoCn23Azds3iUyr wKIikejHP/5xaWkph8ORSqUPP/xvv1v19fWff/55fHy8VqudM2fO3r17ExISoO27bt261157jc/n 33///TCxWq02m83vvvvuQw89VFRUdOTIkdjY2HDVUjDVCABwuVxPPvkkSZJvvPEG1Ng9e/ZkZWXB 10f+e1avQbrpIbZ37NjBOGXu3LkXL1584403ZsyYMYnCi0SiTZs2vfLKKwKBQCgU7tq1Kzs7++WX X46JiZFIJGMRbIxMt8Ciubm5ubm5DNlKSkruu+8+uH3vvffSjfXs7Ozs7Gy4nZqaCjf+53/+B24M DQ1N5DACsdlscDR78sknBQLBtWvX7rzzzqVLl1L2oZ/OWKlUlpaW0vfs3r0bbjz11FPsnbt27YIb sO+fXOEBALm5ufQH9I0bN9KPQrGlUmlaWlpYpA0SFFjUJ++//75er//JT34S9pz9EBUVdenSpTvu uIPD4bjdbqrX93g88Beu0p5IkYJnSgvvh+kfWJTqNUfLRH6uosjNza2vr9+3b5/XoziOK5XK/Pz8 CZYqSKa08H5AgUUjC5FINHfu3MmWIkSmtPB+QIFFEYgAoMCiCEQAUGBRBCIAKLAoAhEAFFgUgQgA CiyKQARgegYWRYwFOAWL8ZYyclZ3TDzTMLAoYiy4XC673W4wGCwWi9vt5nK5YrFYqVTKZDIejzfZ 0k0O0zCwKCI0SJJ0uVw9PT0jIyMFBQVarVYkEtlsts7Ozrq6OrFYHB8fLxAIgg8QNW2YhoFFEaHh crk6OztxHP/e975HTR+WSqU5OTkzZ878+uuvu7q6kpKSgg8QNW2YhoFFAQAej8flcqHQu8Hj8XiG hoYGBwfXrVvHVgMOh7N69epDhw6JRCK5XB5k+PPIBMdxHo83qiJMw8CiHo9H12/a8+Hp1o6ecJVu 2sPFwfK8xK0/usfXQMHhcFJTUysqKuDK+AkWL1xAB3lFRUWTqSR0+2eyAou6XK5XD59r9ySIih8O V+mmPTzCmiI7l5yc5CdNXl7e9evXY2Njp+4TPEmSdrv92rVrCxYsCP6saRhYlCTJ1s4+wcIfWu12 ZHEFiYCwcsUWZVSUnzRCodDlcgmFwin9WCISiQYGBkZ1yjQMLIphWEKcuq3pFJG4FOAoSnWQkCNu ztDQkFQqpX/vArS6NZvNGIbBtbWTJubYIEnSarWOduHXNAwsyuPx/nfbPW8cPnP9yhtjLtbtAsYB vTna61U1C+bPY/Ro4Oa9a2ho4HA4Fotl6ob/hu7Vc3NzbTZb8GdNw8CiHA4nTqN88acbgg/UjXA6 nX19fRcvXsybncvhcNhuzTweT0VFRWFh4YwZM6b0MwlBEHa7fVRnTc/Aoi6Xa+r2dpMCHN6joqL+ 9re/PfDAA3SXNwAADMOOHj0aHR0tEAigx6bbChRYFAHATTtk5syZN27cOHDgwPz58xMTE6Oiomw2 W2NjI3TgkJGRIRKJJlvSSQAFFkX8GxzHZTJZdna2VqttbGw8d+6c0+nk8/lqtXrWrFkajUYikUzd LyRjAVntiP8Hx3GpVMrj8aKjo2fNmgUfEblcLo/Hmx6BxEIDKQniFjAMm7pveMeJ23H0RCBGBVIS BCIASEkQiAAgJUEgAoCUBIEIwDR/uzUyMqLX64eGhuBybalUqlaro/zOdY0Q+vv7GxsbdTod9bEi LS0tPj5+suUKiiktPJvprCSdnZ2Dg4Nz586Fy7WtVitcrj00NJSYmBjJ38UqKip6enpKSkoSExOl UunIyEhDQ8PFixd7e3sLCgoifGHglBbeK9jRo0fnz5/vZ8pXdXW1/wSRSVtbGwCguLiYMRuPIIhv vvkGw7CUlJRJESwgV65ccbvdP/jBDxjfK9xu9+HDh7lcbmFh4WTJFpCpKLzNZmtubvYTFjhye9Ox YDabzWbz8uXLuVwuY/YkhmElJSUwgZ8cbDbbq6+++tJLL/3hD39wOp1vv/32aCf2lZaWjoyMjFZy vV7f39+/bt069hc9Lpe7fv16g8Gg1+v95PDWW2+98MILTzzxxEsvvXTy5MnRCjAWxi78hQsXnnji idOnT4+jlKNneppbRqMxNzcXTpWvra393e9+V1FRkZaW9sorr2RkZOA4PnPmzI6ODhhi0ytXrlyZ PXt2SUkJ1KtHH310YiTv7u4uKiryNQeEy+XOmzevpaWFMeuZzs6dO61Wa1lZ2c9+9rNxE9M7Yxd+ 0aJFn3/++YoVK8ZLxJCYnkpiMBgWLFgAx5AXX3zx0qVLAICGhoZnnnnm448/JkkyLS3t+vXrfnKA cXeXLFkCb3lpaemOHTvgtL/h4WG32/2f//mfH330kVarhY4Rtm3bVl9f/+WXXzocjoULFxYXF4cm eW9v78qVK/0kyMvLKy8vDzI3kiT37dtnt9slEsnDDz/85ptvrlmzhsvlfvLJJ/QQiuEijMK3tLR8 8sknGo1Gr9dnZmYODg7C0HwWi+W9994TCATNzc1btmwpKCgIk+z+mJ7mlt1up15hVVRUUPvr6uoA ACRJCgQCGP7YF/n5+enp6c8999zZs2epneXl5Q888MCDDz6YlJQUExNDEMSiRYu2b99uMBjsdntW VtauXbuefvrp7777LmTJHQ4HDAvsC6FQ6D+OO51r164plcrHHnsMw7AbN248+OCDx44dO3r06ObN m0OW0A/hFZ7L5cIAyMPDw1u2bMnOzm5oaKivr8/Pz3/sscdkMtnEaAiYriMJn8+3WCwCgQDH8fT0 dGrQgKF0SZK02WwBvRmsWbOmuLh4z549mZmZcM/q1asPHDiQlJS0evVquEetVgMABAKBw+Ho7u4+ f/68WCwOvh2wEYlEIyMjMOS5VywWS/CLOnQ6XW1trV6vHx4etlqtCoVCo9G4XC6VShWyhH4Ir/BQ SD6fr1Qqwc1Knj9/fmlpaV9f3/e///2wyBwM01NJFApFZ2dnZmYmSZKvvPLKM888U1lZWVBQ8Oyz z8J1852dnf6/lhAEgeO4SCSKjY2lxpze3t57772XHhaQvsz10KFDjz32GJ/Pr6qqCllyrVbb1tbm 501LW1ubH5ueQUxMTF5eHhWeW6fTmc1mHMd7enrG46tFeIX36i3EbrenpaUxQlePN9NTSRISEsrL y5OTk7lcblxc3Lvvvgv3wyXObre7oqIiKyvLTw7nzp27fPkyjuMJCQnJyclwp1AoPHz48KlTp5KT k9etW8c4Zc6cOXv37k1ISPBvcvgnNTX1woULmZmZXh9/HQ5HeXm5n1bIFunatWulpaU4jm/evPm9 997bvHkzhmH79+//+c9/HnavvmMX/uLFiyaT6fTp00lJ3j2AcTicq1evdnd3K5XKH/3oR3K5PDyi +2Xafiepr693OBxr1qyBX68o/xIej+fEiRNwqeqoMnS73aWlpbt37+ZwOH/+85/XrVsXfKc4Kqqq qlwu1w9+8APGdzePx3PkyBGJRJKbmzse1w0L4y18WVnZ1q1bFQrFN998w+fzly1bNjZ5AQjiOwln w4YN8fHxfsxovV7vP0FkolKphoaGrl69yuPxuFwul8sqz6DtAAAgAElEQVS12+3Nzc2nTp2Ci1RH myGO43V1ddeuXausrJTL5Xfcccc4+VfXaDRms/nixYtQcj6fb7PZGhoaTpw4oVAoZs2aNR4XDRfj LbzZbD537lxVVVV/f//q1avDsl7S7XabTCY/Xd60HUkgg4OD3d3der3e5XLBValjNIcmDJPJ1NPT o9PpKMkTExOnhORgqgkfcCSZns8kFFFRUVFRURHe+3pFqVQqlcqpKDmY4sKzmZ7fSRCIMIKUBIEI AFISBCIASEkQiAAgJUEgAoCUBIEIAFISBCIASEkQiAAgJUEgAoCUBIEIQIjTUmw224ULF/r6+rwe 5XA4SqVy8eLFEolkDLIhEBFBiEpSXl6elpb2yCOPeD1qt9svXbp0+fLlcV3Rf/jw4S+//PK///u/ qZWDCMR4EKKS6PV6P+ukhULh4sWLL1y44CvB7t27h4aG5syZQ7kj2LNnT01NjVKpfOmll0ITCYEY J0J8JiEIwn9sWy6XS49M6ZWGhgaYxul0NjQ0hCZJJDtiREwPQhxJgllv5D9NfHx8T09Pc3NzZmZm fX29x+NJTEykHMCVl5cfO3ZscHAwIyPjoYceUqvVJpPpr3/9a0tLi0AgKCwspMaxysrKP//5zy6X a/369YsXLw6tOAiEH0LshoPpv/2niYmJkUqltbW1AICqqqrU1FTKfUlvb+9bb70lEonWr1/f0tLy 17/+FQBw4sSJurq6FStWLF26lP4+4Pz583PnzrXZbO+9917AsQuBCIEQlWTsI4nL5crJyampqQEA VFVV5eXleTweeOjy5csEQdx7772LFy9esGDBjRs3bDYbtO6Gh4dXrlz5wAMPUPk88MADmzZtysnJ cTgcJpMptOIgEH6YNHMLAJCbm/vuu++2trYaDIa8vLzKykq4H7b1119/nUppMpnuueeerq6uf/7z n5cuXdq4cSP13gwuTYbenCg1QyDCSIhKMnZzCwCQm5tLEMSRI0fkcjndxzt0Rvbggw9SO9VqNZ/P /+lPf9rQ0PDWW299+OGHy5cvD14SBGIsTOZIolartVptQ0NDUVERPfGCBQs+//zzb7/9tri42OVy jYyMpKWlffrppwRBqFQqHMeFQiHSDcSEEWJT43K5AW2bYBQJ+grIz8+n74yLi3vyySd5PN6RI0f+ 8Y9/QH9ZfD7/1KlT77//vkgk2rFjR2hiIxAhEKJLocuXL8fHxy9ZssRr4CKPx3P+/Pm+vr4IjNiC QDAYL5dCs2fPrq+v/9Of/uT1KI7jSqVyzpw5oWWOQEQUISqJSCSi+41GIKYx09w5XQi43e7e3l6r 1TrZgiDGBQzDhEJhXFwcI5imH5CSMOnr6+NwODNmzJhsQUYB5Q78Nrz6aCEIYmhoqLe315fjejZI SZiMjIwkJSWNk+9jGIERbrPbFtzjq81R+72eyM6fSsPeEzz+c/OVsx9R6Ql81QA7//ASFRXV0dER fHqkJEzgBLAQ2hO8qYwbD28zIzf4l2pGjJ2M/XTBvDYaeqvyJRhbzmDK4jVP+uXoybzm6VVmqoyA pWkMVfT1F9xUp5AVaVTT/MKmJJNlyodgYgaEfre8XhHc2sTp21Tt0w+x2xxjD/tm03tiSvEY2uWn KQNW+6Ok8j+wwKNe26gfOelHGbVH7fQ1qjAUiZ6J/y6G3iX5uileGW0PGDYlCc2U9z/gBkMIJqZ/ yJvQ75zX3o7aQ//LkJ+6bfQ2ze78cBxn9KNeM2E0OEaDZmyw2xCDgH0wIwG7KYNb1carhOwaY+g8 LDv9qNfSMQRg62rwdqb/TpBN2JTEYrHMmDEjSFOe3giC2fZPVFRUZ2fn6EX2DrufBjfHB3abo3eQ bNOC0dC9ahd9/KHaB3vEYOfGFpXdcCmRvLYhCq9VzR496Lkxis94lmDXAH1woIvNHjG86hVDEnoN ULrk9boejwfHcUZZRtsRh20GlB8jL5gei24GhJAPvPrJkyepiFxfffWVyWQKIcYnvf2RJOl2u5ub m5ubm5uamjweD0POhoYG6tbSbwag3XJ6s2D0hRiGwRzoh6gNmCHjXMZA4bV+2Gcx8mfga6fXHBhD B0MARpNlnEXNuGML46t+AK1lg1s1kF7n7MEKwzCLxdLa2upwOChtBDRLAQRNmB/cvXZIUJvBrf0u AGBgYECn09lsNqofBQCIxeKYmBiVSkXveOAhmI+f4sXGxsLgdYODg3K5HIaSCa0I1N0ym81yuVyj 0fg5hX6fGC1pZGTEbrfDSNYQdhHozY6eodcLMcSDG/Q8qWbHqD22bMBb22KLRD+LJEn21FJ4dbbm eC2F153se8ookVf52d0QHavV2tvby+Pxurq6EhMThUKh/yv6IWxK4mcQpxcSlnBgYKClpUUkEmk0 GsZaeafT2dvb29TUlJGRAVXFa+17NV3i4uLa2tri4+P7+vri4+MHBgba29vnzp3b2Nio1+sBAPPn z29qalKpVLGxsZ999tmyZcukUun58+fVajWPx4OhRkkaGIZxuVyj0RgdHQ1vm8Vi0el0JEnGxsbC gOUkSbpcrs7OTpIkFQqFWq0eGRnp7e3FcTwuLq63txd2AXK5nJ7GbDbr9XoMw6h+DpaL3l/4as1s s4putABWM6KbMV77XV830Zcd5dWw8XVd+lGvlpXXe+q/EbNTMurEarX29PQQBOFwOAAAnZ2dUE+o Ek3aSEJvW+DWKobmLPzb3NxsMplmzJgBJ0fC2cSU0DiOazQapVLZ3Nw8MDCQlpaGscxZyrRj3EWV SlVRUQEA0Ol0RUVFIyMjAACn09nT01NcXNzZ2dnc3KxWq/v7+wUCgVar1el0TqdTrVanp6f76iDl crnD4aivr9dqtWq1uqenJz093ePxtLe3Z2RkAAAwDNPpdBqNRi6X19XVRUdHwzSwdFFRURiGRUdH d3d3azQamUxWX18fHR3d19cHY2RXVVUxzBtKAIbp4jUBdZTR9Xod1tjDDqOxsrszwNIuRp1TubEl Z4gdcLSBxQnm5SxdYLZIJEmKxeLc3Fy6bCRJOhwOr2NOQMI5klB3C7BMCOrtTX19vcvlSkhI8Hg8 vibbw2qKjY01Go319fU5OTnAWyOgmgi9J1YqlQaDAcMwasW8xWKxWq0XL150u91RUVHR0dGNjY04 js+cObOhocHj8Wg0GvpYzK5ErVarVCpbWlqkUqnT6YTfoehK5XA4DAaD0WjEcdztdhMEwZ4czUhD kiQsESUnIowwVILdC0zaSMK4PF0sOJK0trbabDa1Wu10Oqn0PB4vNjaWx+MNDw8bDAZ6RyKXy41G Y2tra2pqqq9XKwwbNy4urqamJiEhgdojFoulUunChQupPRiGDQ0N5eTkYBg2ODiYlZUFKxS2Vyp/ eEX4l8fjCYVCgiAEAkFycjLdCidJUigUKhQKaH0BAHAc93g8VPx4WCKBQEBPg2GY2+3GMMzlctGV nD0CsI0W4K2rpr9bYxsV1B6vXbVXg4pKz7CdGCLR7wvp25xjG0WMrEZlBXkdCb3aqAx52K0oGML8 TMIYQOh3fWRkpLu7G4aEp9+n9PR0+Fyr0WisVuvAwAA9W7lc3tXVpdFopFJpMC0pJibm4sWL8+fP p3IQCATx8fFnz57FcTwjIyM2NhZaUAAAaBpxOJz6+nr6Mwm9UEajcXBwEMMwoVAoFApjY2Obm5sx DJPJZBqNBibWaDSdnZ06nY7D4SQnJ8fFxbW0tGAYFhcXJ5FI2traYJquri6YJiUlJTY2tqmpSSgU wtX5XvXBzx6vzZF9iN7Q6W3dV4dK389Iz1AYRluky+BLncCtxhVDYHpPwU4TjJlEPc7RW5dXdQ1e GyFhVhJGCSFw540bN6KiolwuF7UfFqa7u5vP5/P5fJPJNDAwwHhEAQDI5fKGhobCwkJGTdG7E2qb w+FQvlRUKpVKpQIApKenp6enUyfm5eXBjYyMDPhcQQ+mDHOjhhGVSkUPQC6RSKisMAybOXMmSZI8 Hi8tLY06HaahqgI+ewAAUlNTqTRyuVwul/tqrL5uIb3F+GmL4GaXSf2CW2+N//zZO6khiPplJGY/ OHltiP6bpp/BxOt9Z5fIjy4xEkyOklCiMPQEimW1Wi0WC5/PpysJxGAw6HQ6/9laLBaLxSIWi9lK OKrSBg/jQTPI0Zx+OmB1HOzKYZgN4NZx0pctwbCs6DkzBo2ADY5xUXYR6GcxpGU0OHrpqC6GPdqz N/zcQfZ4RT2IApaWApYu0a/Ovn3BE/6RhC4TBMMwnU7H5/OpJ3X6gKhQKFJTUwUCwcDAQHNzs9ex ksfj9fX10btwEMgIHmNB6A8kwEc3HNBIAL71hLGfYc+AW98HAlpD9HUJkma0sBsi8Ns+/OiS1+GC kS3jl3536LnBsxgDEUMqRg70/Yz6YYjKqFj4kYQueWpqKnbz8dhXkX0xLh8T2RIMDAxwOBz2MAIA SElJgZ/q4GO611EFx3GTycTINoRxMxj8N3rAUlF602SfzrjfbJ3xenXAevxgdD2Mrppxrq+a8ZWe jp8EjJbqK39KDdjDCKOh++ng2FrhX5cY2xKJJDExsaenh8fjud3umTNnEgQBZ2OE0KuG/xUwGwzD bDabQCAAvi0Tej7A2yQXu93uvyMJWXJ2bsEnoG/T+36v7YBq5YyZwl6vy2iIvtqW1ybC0BZ2tn5M joBdD+MqXnsBhuS+cqZ3Low0dAOJfRVKANKbKQG34Qubnp6e7OxsSkMYaYJk3NeTwDI4nU74Zd2/ cARBeDXJAABUNxD2oYNNaJfw2kX5aRNey8I2KthGFGC1da9a4bUPDrmAbBVli8qWBPP7oO9rP2DV VQjaDgAQCASZmZkej4ehIV4z9MM4TkthwPh0yNAB6hMkuzzwXP/5h1FzZDJZT0+PUqkM4QkvIP6t Ha+9uNdOmm2K+Bk9fK3WCh5f7ZU9dnlNEGRJAUthxiIzxKt6dHd3R0VFBZ/JuI8ksNhcLtflcvly u0jtJwiCqiaoRdTYwvjSN36kpaW1tbXBjxuI6QeGYTKZjHplHwwTNJJIJBL4lRDqA3ZzEhE8SlcS qPokSTKGGupjYghXHxUCgYD6soFAgHGalsIeMZRKpdFoxG79GgqHCB6PB0cJeJZXcwvc9KJNB7v1 iwECMU6EbdEVeRPqdTi0nSAxMTHUAygDAACXy+VyuX58YGMYFhMTQ51C3IR+3XAVBIFgEE7f7OwX oBRisZi+8IgO/YHe17zg6OhosVgcLjkRiFER5u8kvtZ5YxiWkZFhNBrZH0CuXr3K4/HEYnFXV1d3 dzc7ZxzHYRBqr2/9vL4n8Xg8fX19NpvNq6gYhgkEgpiYGA6H43Q6GWvWJpepKzkAwO12d3V1UYEv GWAYJhQKExMTp9zqgPF9u0V/dSiTydLT0xsbGxlp9Hr93//+dz+ZpKeny2Qyr6/VgY8XhTqdTiaT FRQUgFtnfMBfj8fT2dkJl51wudyIampTV3IAQE9Pj1gs9vXiyOPxGI3G3t7e5OTkCRZsjIzjLGDG F1OCIFJSUmw2W1dXV/DZJiYmpqSk0GdSef3Ey9Acq9Wan59vNpvJW2dzwOEOx/GkpKSrV69yOBwY TS5ymLqSAwAsFosfBeBwOBqNxmAwTKRIYSHM8aKgxUWZXuyPTdnZ2fRp5H7AMCw9PT07O5vKmVIP +iW8nkuf2sQAvh6or68HAGi1Wq/xVex2O1wGDLl69eqoKmEsjF3yM2fOXL169cqVK15ttvEui/87 6/+o3W4/efIktaCou7v71KlT4RQuVML8dguw5vYBltOq1NTUwsJChULhJzeFQlFYWAgXYFDqwZ7y 5GfaAgAAx3Hocga76XsGpm9vb7fZbB6PJ0jjeN68ecEkCyNjkVwul8+bNy8pKcnr91CvZTGZTF6f BkdLkH2fn6MymQy67AAAGI3GCHlbM44fExk6Q08QFRW1YMECk8lkMBhMJhO88RwORyQSKZVK6AjC V+Ze9YGxk7zpk8VqtSYlJVGdMUEQ7e3tTqczJiYmeJfJFy9eXLhwYUVFhVgsdrlcGIbNmjWLJMna 2lq3283j8XJzc6lVh5mZmfQw86MlXJJLJJLu7m6SJOvq6uCnp5ycHB6Pxy5LTk5Oa2srdCkmkUga Gxu5XG5sbGxsbGzIpQgZiUQyPDwMAHC73dRQCb3eeDye2NjYxMTEiooKHMc5HA6fz4eLScebcD64 e+0kSNosI+zWaW1+/GLRkzFOD1IYkiTtdrvNZuvo6ICGMkmSbW1tDocDvmNpb28fVelIkoyLi5PL 5eXl5W6322QyCYXC9PT0uro6k8nU39+flZVFLWEfC2GR3Gg0yuVyg8EgEAhyc3P7+/vb2trgS0JG WQiC0Gq1GIbFx8e3t7fHxMSEHHZi7CMJAEAulw8NDVksFrVaDRVGqVSqVCqCIMrLyxMTE0mSTE1N lcvl169ft9lscP3zuBJOcyvgIfZDNrWHsta8Hg3+EvS/sPpga3M6ndCZH4/Hi4+P9/M84wf4NonD 4RAEYbVajUZjVVWV1Wp1u91ZWVltbW21tbVjjCU/dsmHhoauXbtms9ngaxJosUgkEoYvc3pZqJ2J iYl2u72ysnISYxhptVq9Xt/f3099WBsaGqqrq6MvyIPCC4VCX+/Kw0vYRhIMw6xWazB9Cbh12QBD KzDaZOkgL+21pgiCUCgUBEFA06W5uRkAAB3GhfyFnl46+HmU/rpz9uzZbW1ter0+Li4uhMzDJblc LqeiVUokksHBQQAAXPzsqyzYzelC0Fw0m82tra30df9BEpaRJCoqqrGxUSQSUeZWQ0PDnDlzOBxO f38/3AOXgkP306MVMgTCpiRSqXRgYEClUgWpJxBfTzKjymFgYIDxGgBm4na7lUolSZImkwnuj4mJ oYJr+7+Q2WwuLy8HAECvX2zUarXBYLh69Spl1rtcLrfbnZubOyr52cUZo+QMIfV6fWVlJRTSV7Ko qKjr16/D7gn64pjETxkYhkmlUvpUdo1GU11dLZFIKMvKZDK1trZKpdIJsLUACDVENRuHw9HW1kbd 1AkDwzCZTJaZmUmPT1JXV5eVlQXVlcvlms1mh8MBHXBREyjr6urG2KDHg6krOQCgqakpMzPTfy/Z 0NBAPRqFxtWrV/Py8sIYjma8QlSziagZ5mKxWKfTwVmVbrdbJpPJZDJwc4oxSZJ6vT4sD9lhZ+pK DgAQiUQGg0Gj0fh6hWMwGMby6m+ymJ7h4OLi4vr6+urq6rwexTBMLBYnJiZOsFTBMHUlBwBotdr+ /n72zCMIhmHQu98YrzLxn62mp5Lw+fxwBb6aYKau5AAAHo83xpcWkUmYp6UgENMPpCQIRACQkiAQ AUBKgkAEACkJAhEApCQIRACQkiAQAUBKgkAEACkJAhEApCQIRACQkiAQAQhx7pbNZrtw4UJfX5/X oxwOR6lULl68eCpO+YwoUD1HAiEqSXl5eVpa2iOPPOL1qN1uv3Tp0uXLl1esWBG6aAhUz5FBiOaW Xq9fvny5r6NCoXDx4sVGozFUqRD/BtVzJBDiSEIQBAzv5jNfLtePv4K33nrLbDZ3dHSkpKQUFBTc eeedoxXAbreXlZVFR0dv3759VAuGpxZjrGeTyfTcc88lJyfb7fYVK1YUFRXt37+/p6dHKBTiOL5z 586JWf461QlRSca45H/nzp1Wq7WsrOxnP/tZaAJ0dXUlJSVt3LgxtNOnCmN3rZCamrpr1y6n0/m7 3/2uqKgIALBp06aUlJRPP/20srIS7kH4J0Ql8RNLZFRpIC+//LJEIklKSkpLS/vyyy8dDsfChQuL i4vLysq0Wq3VasVxfNu2bWfOnCkvL+fxePfff//p06fb29vPnj2bn5//3nvvcTgcuVz+4IMPtrS0 fPvtt4ODg3fdddepU6cSEhIGBweFQiFBEMPDw1lZWSGMWpNIuOrZbrczFv1aLBaFQkGS5MGDB6ED oYceeujChQsul6ukpOTFF1/8r//6LzTOQCZnJGHQ1tb2/PPPQ9fx2dnZTqfzxRdfLC4uJghi0aJF qampL7zwgt1uv3bt2o9//OOEhAQAwLJly+Ry+fLlyz/88MNVq1bl5OR8/PHH1dXVYrG4t7f32Wef xTDs5MmTCxYsSE5OfuaZZ375y1+KxeLnn39+ainJ2Ou5ra3ttdde6+3t3bx5M9xz+PBhAIBQKMzK yqqsrJTL5Q8//HBVVdU//vGPdevW7dmzp6+vb+3atUhDKEJ8cA+vkqjVaujuoKWl5eDBg8ePH6c8 g0APZQKBwOFwbNq06Ysvvti/f7/D4aDONRgMMTExAIDY2Fj4qjQlJYW6tEqlAgBIJBKpVIrjeAgO 6SaXsddzSkrKk08++etf//rQoUOwVtevX/+LX/xi9uzZX331lV6vh4vOY2NjdTodhmFLly6tq6ub O3duuIowDQhRScJrblG3+dChQ/fdd9/atWvZvrEBAGq1eseOHVqt9sqVK9ROSjf6+vrg/Wa4XQtS hsgkXPXM4/Hcbje9jxCJRFarNS4urre3F9ysPbfbffr06aKiorNnz45F7GlGRJhbFHPmzNm7d29C QkJ0dDT76MGDBy0Wi91u37p1K+V7/O677z548OCpU6fkcvmsWbNaW1tHe9FIJizmVllZmdVqXbly JfRF/9FHHwkEAo/H88gjjygUioqKitdffx0AsGXLls8++2zp0qWLFi364x//WFBQ4N/z/+1DiM7p Tpw48ZOf/MRriAyKsrKy733ve2GT9LYE1fMEENA5XYjmllqtPn/+vC/n0B6P5+zZs9PSu8wEg+o5 EgjR3Jo9e3Z9ff2f/vQnr0dxHFcqlZTbZkTIoHqOBEJUEpFIhF6ATAConiMBNFUegQgAUhIEIgBI SRCIACAlQSACgJQEgQgAUhIEIgBojXtE4/F4+vr6fMWYxTBMIBDExMRwOByn0wlj0iLCDlrjHtHo dDqZTFZQUABuhrGn/3o8ns7OToPBgGEYl8tFSjJOoDXuEY3Vak1LSzObzYODg4ODg0NDQ2azeWho CP61WCxJSUkul8vj8cBFAYjxYHLWuNtstr179zqdTrfb/dOf/hTOTvVKaWnpjh07IjaU5nhDEAQ1 dECoQ3C7vr4eAKDVar1OgqyqqnI4HMPDw3K5XKPRmM3m7OxsX3FrGxsbVSqV1/nXtzmTM1X+ypUr s2fPLikpgbc/NBluH3Ach7UE9QTGcSdJsr293el0ejweX71MXl6e2+2uqKgoLCycUImnF5Ozxl0u l587d27JkiUCgQAAcOPGjU8//ZTL5a5bt85qtdKXucP0g4ODBw8eJEkyPz9/5cqVock8FYGdyMDA gNVqTUpKosYTgiCghsTExHR0dASZG4yAThBEXV0dSZIajSYxMdFms9XU1HA4nJGREWSzeWVyRpL8 /Pyenp7nnntuzZo1y5cvP3LkyO7du8ViMQCAscwdpv/yyy9Xr16dk5Pz3HPPLVu2zL+lN80gSdJu t9tsto6OjuTkZLinra3N4XAIhcLExMT29vZRZdje3p6UlKRSqS5cuBAfH9/W1paenq5UKq9duzY+ JZjyTNrKxDVr1hQXF+/ZsyczM9PpdEINAQC0tLScP39eLBZTy9wBADqd7uuvvz579iyXy4VuPkIT e8oBLSuRSGSxWKCexMXFdXV1ORwOHo8XHx9PkuRoF+5brdaOjo7u7m4cx10ul91uhz4fkOcHX0yO uUUQBI7jIpEoNjbW6XTy+Xyr1Qr15NChQ4899hifz6+qqqLSx8TEFBQUZGVlhSbtlIYgCIVCQRAE NLqam5sBADiOx8XFkSQJtWhUiMVijUajVCrhX6FQaLPZ4G+YRZ8uTM5Icu7cucuXL+M4npCQkJyc vG7dutdee43P599///1el7mvWbPmwIEDX3zxhVQq3bFjR2gyT0WgDrjdbqVSSZKkyWSC+2NiYrhc LlyxOFo9SUlJqa2tbW1t5fP5s2fPTklJqampEQgEft4x3uaEqCTwDvlfe+1HSYqLi6nnDQBAdnZ2 dnY23E5NTb333nupQ7t374YbTz31VGiiTnXgt0Kn0xkVFYVhmMPhEIvFQqHQ5XIBAPr7+/0rCZfL XbBgAdyeN28e3IBfJyEikWj+/PnjJv50AK1xj2jEYrFOp6PGE5lMplarqQc2kiR1Ot1t+xFpwkBr 3COauLi4vr6+uro6r0cxDBOLxYmJiRMs1e0GWuMe0fD5/KSkpMmW4nYHTZVHIAKAlASBCABSEgQi AEhJEIgAICVBIAKAlASBCABSEgQiALfRnPOpwsjISF9f3/DwsNvt5nK5EolEq9VGRUVNtly3L0hJ Iou2tjaTyZSUlJSSksLn851OZ39/f2trq0KhSElJCT54GCKMjK7SKysroRuh7u7u2tra8RHp9qW5 udliscyePVsulxME4XA4CIKIjo7Oy8uz2WzTLIjXFGJ0I0lOTs4///lPrVbb1NS0ZMkSar/H43G5 XFMubGdEMTw8bDQaCwoKCIKgnAaBm74gMjMzKysrpVIpjMCKCBkcx3k8nv8J7AxGpyQCgSA+Pv7c uXNJSUnUGlqPx6M3mv987F+tXbpR5YagszRXu2rhLI/HA3WDWmhA+cpQKpU1NTUw5joiNHAcl0gk RUVF46gkAID4+Pjq6uqFCxdSe1wu197jF/uBJmHZPaPNDUGRJrgYrVJ6PB66SxQIHFtgnGEYxh4R GtBhwLVr16g1NsEwaiVpaGjIz8+nh/omSbKt26C9o2S0WSHocAg7n893u904jlODCaUqJEniOO52 u9FK9DEiEokGBgZGdcrolMRsNpMkmZmZefbs2ZGREbjcB8OwxJjo/rar8tT5GD6KUQxBx0nybHY7 j8uFDyF0/1pww2q1cjgcpCRjgSRJq9Wq0WhGddbolKSmpgYupcrNza2url60aBEAgMfj7dq44q/H L1aff3dUuSHodOWq43t1SYnx7GcS+NdoNHI4nG6drT4AAAvCSURBVOHh4cmUcooDl6nl5uaOyuvF 6JRk8eLFcEOtVqvVarjN4XBi1VG/+cl9t5U7rLBjNBrPnz8fF6OBH0MYSkIQhMFgWLhwoVarnUwp pzjQA5Pdbh/VWeFp1i6XC/olQIQMh8OJjo5uamqaOXMmw1cQhmGNjY0ajYbP5w8ODk6ikLcn6Atu BJGTk6NQKKqqqgYGBpxOJ47jHo/HaDRev35dJpNRDmUQEwwykCIIHMdzcnJiY2M7Ojra29tdLheP x1OpVHl5ecjZ+ySClCTiUCqVlHtFRCSAzC0EIgBISRCIACAlQSACgJQEgQgAUhIEIgBISRCIACAl QSACgL6TRBzIEUSkgZQkskCOICKQ0VX6mTNnLBYLAKCrq6u6unp8RLp9QY4gIpPRjSSZmZktLS15 eXmtra30BZDIEcTYQY4gJoZxdwQRHx/f0NBgMplg2D64EzmCCAvIEcQEMEGOIJKTky9cuLB06VJq D3IEERaQI4gJYIIcQcyYMaO5uZk+6CNHEGEBOYKYGMbdEQQAAMdxxjsW5AgiLCBHEBPARDiC8Apy BBEWkCOICWAiHEEAADgczqpVqxh7kCOIsYMcQUwAyBHE1AY5gohY0BfcCAI5gohMkIEUQSBHEJEJ UpKIAzmCiDSQuYVABAApCQIRAKQkCEQAkJIgEAFASoJABAApCQIRAKQkCEQA0HeSiAM5gog0kJJE FsgRRAQyOiVpaWnp7OwEAIyMjOTm5qampo6PVLcpzc3Ndrt99uzZAADoCIIkyejoaLVa3dDQ0Nra mp6ePtky3o6MTknS0tLS0tI8Hs+ZM2dmzJhB7UeOIMYOcgQxMYy7IwhIY2NjamoqtXoEOYIIC8gR xAQwQY4gHA5Hb2/vihUrqD3IEURYQI4gJoAJcgRRU1OTm5tL9XMAOYIIE8gRxMQw7o4ghoaGbDZb TEwMfSdyBBEWkCOICWAiHEE0NTWNjIycOXMGAJCcnJySkgKQI4gwgRxBTAAT4Qhi3rx57J3IEURY QI4gJgDkCGJqgxxBRCzoC24EgRxBRCbIQIogkCOIyAQpScSBHEFEGsjcQiACgJQEgQgAUhIEIgBI SRCIACAlQSACgJQEgQgAUhIEIgC373cSq9X67LPPxsXFAQB+8YtfAADa29tfffXVZ555RqvVdnZ2 Hj58mMPhaLXaTZs2Mc798MMPm5ub+Xz+kiVLlixZQhDEBx98YLPZduzYAQA4fPhwV1eX2+3euHEj ff0m5Pz585999tnvf/97AMCJEydqamoIgliwYMHKlSsvXrx49uxZkiSXLVtWVFTkR3iSJPfv3z8w MBAXF7dx40Y40ctms+3fv9/hcGAYtnPnTpiG+gujJVsslv/93//99a9/rVQqP/vss8bGRh6Pt23b NolEQj8qFArZ51I0NTUdPnyYz+evX78+KSkJ7mTUmNcKPH78+MDAwNatW/v7+w8cOECSZFFR0ZIl SxhH/dfDqVOnLl++LJFI/uM//kMsFsOd/ut8jHA2bNgQHx/vdrt9pdDr9f4TTFHMZvPQ0NDjjz8O b5LD4Th06FB0dHRubq5EIuHxeAsWLFi2bNmpU6cyMjKomwG5dOnSww8/fOedd8Im8vXXX0skErPZ XFhYCACIiYlZtWpVfHz8yZMnGVNCm5qaGhsbbTYbDF+s1WpLSkqKior27dtXUlIiFotXrVpVVFT0 zjvv0Je1samtrR0cHNyxY0d1dbVQKITf43k8XlpaWklJyeDgoNFohGutqb9Q1GPHjhEEUVhY6HQ6 T58+/fTTT/N4vKtXr8I5L9RRmUzGPpfiL3/5yxNPPFFYWPjBBx8sWrQI7mTUmEKhYFSgyWT67rvv +Hx+QUHB0aNH77777nvuueejjz4qLCzk8Xj0o37qwW63f/zxx8888wyfz79+/frMmTPhfj91HhC3 220ymfzMHL19zS2r1Upv+gKB4LHHHuPxePCvWCyGR10ul1AoPHny5IkTJxwOx29/+1ubzcY49667 7iooKKD+qtVqAIDT6RSLxXB0AgC88cYbLS0tGRkZP/rRj6geR6FQAABMJhNcua5SqTAM83g8lBi+ aGtry8jIAABkZWU1NTVR+6G2OBwOKB7jb29vL0mS8FoGgyE+Ph4AkJOT09rayjjKOJdRfIfDAVfb WywW6tKMGmP8BQAcP36cavF6vT4hIQHH8ZSUlN7eXsZRRj28+eabLS0tHR0dr776and3d3JyMoZh M2fOpBecXucAgNLS0pGREQBAWVmZ2Wz+4osv3nnnnYMHD77++utHjx7dt2/f3r17/dcwndtXSQAA 9fX1ZWVlhw4dolxY0OfeAgDq6uqUSqVUKl21alVtbe0HH3ywdu1akUjE5/P/8pe/lJWV0e8THZIk v/jiixUrViQnJ8fFxX344YcqlSotLY2d8uDBgy+//PLdd99N7Tlx4kRxcbF/ye12O5/PBwAIhULG qvehoaGampq8vDz23+PHj69duxaWMTo6uru7GwDQ1NTkdDoZRxnn0ovP4/Eoz0ZwsaTXGmP8bW1t lUgk1HQbjUbT1dVFEERra6vT6WQcZdTDgw8+eOzYsaNHj27evNlmswkEAgCASCRiFJyqc681lpCQ sGXLFrFYnJycvG3btqGhIbqG++f2VZKkpKRf/epXu3btwjDswoUL7AT9/f3Hjx+H9jSGYUuXLq2r q5s7dy4AYOfOnY8//vjWrVvffdf7OrMjR47MmzcPPvDceeed33zzzerVq72m3LJly29+85vPPvsM 9nyVlZUGgwEaY34Qi8WwZdvtdvpaRbfbvXfv3s2bN8O1PfS/tbW1cXFxcrkcplQqlQUFBW+//XZd XV10dDTjKONcevG5XC6lSB6Ph76IiF5jjL9///vf165dS6W87777vv3223379sEZnIyjjHpQKBQa jUYul6tUKolE4nA4AAA2m42xSJNe52zgwCgQCFQqFdyAFRgMt6+SUHdaIpGwnb7ZbLZ9+/Zt374d 3gm323369OmioqKzZ89S54pEIq/rzM6dO4dhGDUafPLJJxs2bDh27Bg7pcfjAQBwuVw4K76zs/Pb b7/dunVrQOHT0tLgINbY2JiSkuJ2u/v7+wEABw4cWLVqFfUIQf9bVVVVXV39wgsvNDQ0vPnmm06n s7i4+NFHH1UoFPPmzWMfpZ/LKL5EIrFYLCMjI7BT1+v1BEEwaoz+d2BgQK/Xv/766++8887169e/ /fbbqKio7du3b9q0icvlcrlcxlFGPeh0OrPZbLfbe3p6EhIS4ADIKDijzgEAUJfg0TFy+77dqq6u /uabb3AcF4vFdGsH8sUXXxgMhnfeeQcAsGLFip6enqVLly5atOiPf/xjQUHBoUOHbDab2+1+4IEH GCc6HI733nsvLS3thRde4PF4a9asIUly9erVBw4cuH79en5+Pj3xvn37rFar0+mcN2+eQqF44403 nE7nnj17AABbtmyJjY31JfzMmTMvX75cWlqqUqlycnLq6+tPnjxZUlJSUVFhNBq/+uqr9PT07Oxs +t8NGzbAc998882NGzfy+fy//e1vvb298fHxd911F/WwC482NjbSz+VwOPTi33///W+++SZJkuvW rQMA7N+/f/369VeuXKHXWGdnJ/3vb3/7WwBAd3f3119/vXLlyo6Ojs8//9zj8fzwhz9UqVSMo88/ /zxVDw899NAHH3ywefNmDMP279//85///I477nj55Zc5HM727dsbGxtPnjz56KOP0ut89+7dAIAP PvhALpcz3suFBnb06NH58+f7WdBYXV3tPwECEWmUlpbu2LGDejTyj81ma25uho4zvXL7mlsIRJDc vuYWYhoDLa5wgUYSBCIASEkQiAAgJUEgAhBYSTAMs1gsjE/RCMT0IJiGHfjBXSwW9/X1KZVKupNs BGJ6QJIkNXfOF4GVJCEhobe3t6WlJXyCIRCRAvQO7H92fWAl4fP5ycnJ4ZMKgZhioAd3BCIASEkQ iAAgJUEgAoCUBIEIAFISBCIASEkQiAD8H8r4iRQvFbDLAAAAAElFTkSuQmCC "
       height="618"
       width="268" />
    <text
       xml:space="preserve"
       style="font-size:20px;font-style:normal;font-weight:normal;text-align:end;line-height:125%;letter-spacing:0px;word-spacing:0px;text-anchor:end;fill:#000000;fill-opacity:1;stroke:none;font-family:Sans"
       x="294.23972"
       y="160.39749"
       id="text3082"
       sodipodi:linespacing="125%"><tspan
         sodipodi:role="line"
         id="tspan3084"
         x="294.23972"
         y="160.39749">Stack tab</tspan></text>
    <text
       xml:space="preserve"
       style="font-size:20px;font-style:normal;font-weight:normal;text-align:end;line-height:125%;letter-spacing:0px;word-spacing:0px;text-anchor:end;fill:#000000;fill-opacity:1;stroke:none;font-family:Sans"
       x="293.72409"
       y="238.6749"
       id="text3086"
       sodipodi:linespacing="125%"><tspan
         sodipodi:role="line"
         id="tspan3088"
         x="293.72409"
         y="238.6749">Main Store</tspan></text>
    <text
       xml:space="preserve"
       style="font-size:20px;font-style:normal;font-weight:normal;text-align:end;line-height:125%;letter-spacing:0px;word-spacing:0px;text-anchor:end;fill:#000000;fill-opacity:1;stroke:none;font-family:Sans"
       x="294.76315"
       y="345.4606"
       id="text3090"
       sodipodi:linespacing="125%"><tspan
         sodipodi:role="line"
         id="tspan3092"
         x="294.76315"
         y="345.4606">Work Store</tspan></text>
    <text
       xml:space="preserve"
       style="font-size:20px;font-style:normal;font-weight:normal;text-align:end;line-height:125%;letter-spacing:0px;word-spacing:0px;text-anchor:end;fill:#000000;fill-opacity:1;stroke:none;font-family:Sans"
       x="294.23972"
       y="466.53207"
       id="text3094"
       sodipodi:linespacing="125%"><tspan
         sodipodi:role="line"
         id="tspan3096"
         x="294.23972"
         y="466.53207">Surface</tspan></text>
    <text
       xml:space="preserve"
       style="font-size:20px;font-style:normal;font-weight:normal;text-align:end;line-height:125%;letter-spacing:0px;word-spacing:0px;text-anchor:end;fill:#000000;fill-opacity:1;stroke:none;font-family:Sans"
       x="293.72409"
       y="568.98877"
       id="text3098"
       sodipodi:linespacing="125%"><tspan
         sodipodi:role="line"
         id="tspan3100"
         x="293.72409"
         y="568.98877">Mesh</tspan></text>
    <text
       xml:space="preserve"
       style="font-size:20px;font-style:normal;font-weight:normal;text-align:center;line-height:125%;letter-spacing:0px;word-spacing:0px;text-anchor:middle;fill:#000000;fill-opacity:1;stroke:none;font-family:Sans"
       x="257.53561"
       y="635.10358"
       id="text3102"
       sodipodi:linespacing="125%"><tspan
         sodipodi:role="line"
         id="tspan3104"
         x="257.53561"
         y="635.10358">Scaling</tspan><tspan
         sodipodi:role="line"
         x="257.53561"
         y="660.10358"
         id="tspan3106">&amp;</tspan><tspan
         sodipodi:role="line"
         x="257.53561"
         y="685.10358"
         id="tspan3108">Position</tspan></text>
    <rect
       style="fill:#ffffff;fill-opacity:0.00392157;stroke:#ff0000;stroke-width:2.5;stroke-linecap:butt;stroke-miterlimit:4;stroke-opacity:1;stroke-dasharray:none;stroke-dashoffset:0"
       id="rect3110"
       width="248.52261"
       height="110.30502"
       x="345.45963"
       y="177.55754" />
    <rect
       y="292.48206"
       x="345.38412"
       height="94.027428"
       width="248.67358"
       id="rect3114"
       style="fill:#ffffff;fill-opacity:0.00392157;stroke:#ff0000;stroke-width:2.5;stroke-linecap:butt;stroke-miterlimit:4;stroke-opacity:1;stroke-dasharray:none;stroke-dashoffset:0" />
    <rect
       style="fill:#ffffff;fill-opacity:0.00392157;stroke:#ff0000;stroke-width:2.5;stroke-linecap:butt;stroke-miterlimit:4;stroke-opacity:1;stroke-dasharray:none;stroke-dashoffset:0"
       id="rect3116"
       width="248.2845"
       height="138.63835"
       x="345.57867"
       y="391.24805" />
    <rect
       y="533.32684"
       x="345.21875"
       height="59.394123"
       width="249.00438"
       id="rect3118"
       style="fill:#ffffff;fill-opacity:0.00392157;stroke:#ff0000;stroke-width:2.5;stroke-linecap:butt;stroke-miterlimit:4;stroke-opacity:1;stroke-dasharray:none;stroke-dashoffset:0" />
    <rect
       style="fill:#ffffff;fill-opacity:0.00392157;stroke:#ff0000;stroke-width:2.5;stroke-linecap:butt;stroke-miterlimit:4;stroke-opacity:1;stroke-dasharray:none;stroke-dashoffset:0"
       id="rect3120"
       width="248.59987"
       height="101.81086"
       x="345.42102"
       y="598.23328" />
    <path
       style="fill:none;stroke:#000000;stroke-width:2.5;stroke-linecap:butt;stroke-linejoin:miter;stroke-miterlimit:4;stroke-opacity:1;stroke-dasharray:none;marker-start:none;marker-end:url(#Arrow1Mend)"
       d="m 303.04576,232.71005 32.32489,0"
       id="path3890"
       inkscape:connector-curvature="0" />
    <path
       inkscape:connector-curvature="0"
       id="path4700"
       d="m 303.04576,339.49576 32.32489,0"
       style="fill:none;stroke:#000000;stroke-width:2.5;stroke-linecap:butt;stroke-linejoin:miter;stroke-miterlimit:4;stroke-opacity:1;stroke-dasharray:none;marker-start:none;marker-end:url(#Arrow1Mend)" />
    <path
       style="fill:none;stroke:#000000;stroke-width:2.5;stroke-linecap:butt;stroke-linejoin:miter;stroke-miterlimit:4;stroke-opacity:1;stroke-dasharray:none;marker-start:none;marker-end:url(#Arrow1Mend)"
       d="m 303.04576,460.56723 32.32489,0"
       id="path4702"
       inkscape:connector-curvature="0" />
    <path
       inkscape:connector-curvature="0"
       id="path4704"
       d="m 303.04576,563.02393 32.32489,0"
       style="fill:none;stroke:#000000;stroke-width:2.5;stroke-linecap:butt;stroke-linejoin:miter;stroke-miterlimit:4;stroke-opacity:1;stroke-dasharray:none;marker-start:none;marker-end:url(#Arrow1Mend)" />
    <path
       style="fill:none;stroke:#000000;stroke-width:2.5;stroke-linecap:butt;stroke-linejoin:miter;stroke-miterlimit:4;stroke-opacity:1;stroke-dasharray:none;marker-start:none;marker-end:url(#Arrow1Mend)"
       d="m 303.04576,649.13873 32.32489,0"
       id="path4706"
       inkscape:connector-curvature="0" />
    <path
       inkscape:connector-curvature="0"
       id="path4708"
       d="m 303.04576,155.56719 40.18203,5.71429"
       style="fill:none;stroke:#000000;stroke-width:2.5;stroke-linecap:butt;stroke-linejoin:miter;stroke-miterlimit:4;stroke-opacity:1;stroke-dasharray:none;marker-start:none;marker-end:url(#Arrow1Mend)"
       sodipodi:nodetypes="cc" />
  </g>
</svg>
