<?xml version="1.0" encoding="UTF-8" standalone="no"?>
<!-- Created with Sodipodi ("http://www.sodipodi.com/") -->

<svg
   xmlns:dc="http://purl.org/dc/elements/1.1/"
   xmlns:cc="http://creativecommons.org/ns#"
   xmlns:rdf="http://www.w3.org/1999/02/22-rdf-syntax-ns#"
   xmlns:svg="http://www.w3.org/2000/svg"
   xmlns="http://www.w3.org/2000/svg"
   xmlns:xlink="http://www.w3.org/1999/xlink"
   xmlns:sodipodi="http://sodipodi.sourceforge.net/DTD/sodipodi-0.dtd"
   xmlns:inkscape="http://www.inkscape.org/namespaces/inkscape"
   id="svg2116"
   inkscape:version="0.91 r13725"
   viewBox="0 0 255.99999 255.99999"
   sodipodi:version="0.34"
   version="1.0"
   y="0"
   x="0"
   sodipodi:docname="FileIcon.svg"
   width="100%"
   height="100%">
  <sodipodi:namedview
     id="base"
     inkscape:window-x="711"
     inkscape:window-y="78"
     inkscape:window-height="903"
     inkscape:window-maximized="0"
     inkscape:zoom="0.89702955"
     showgrid="false"
     inkscape:current-layer="g3027"
     inkscape:cx="138.22218"
     inkscape:cy="95.050961"
     inkscape:window-width="744"
     fit-margin-top="0"
     fit-margin-left="0"
     fit-margin-right="0"
     fit-margin-bottom="0" />
  <defs
     id="defs9">
    <filter
       color-interpolation-filters="sRGB"
       inkscape:menu-tooltip="Blur the contents of objects, preserving the outline"
       inkscape:menu="Blurs"
       inkscape:label="Blur content"
       id="filter3039">
      <feColorMatrix
         result="result7"
         values="1 0 0 0 0 0 1 0 0 0 0 0 1 0 0 0 0 0 1 0 "
         id="feColorMatrix3041" />
      <feGaussianBlur
         stdDeviation="5"
         result="result6"
         id="feGaussianBlur3043" />
      <feComposite
         result="result91"
         in="result6"
         operator="atop"
         in2="result7"
         id="feComposite3045" />
      <feComposite
         result="fbSourceGraphic"
         operator="in"
         in2="result91"
         id="feComposite3047" />
      <feColorMatrix
         id="feColorMatrix3049"
         values="0 0 0 -1 0 0 0 0 -1 0 0 0 0 -1 0 0 0 0 1 0"
         in="fbSourceGraphic"
         result="fbSourceGraphicAlpha" />
      <feColorMatrix
         in="fbSourceGraphic"
         result="result7"
         values="1 0 0 0 0 0 1 0 0 0 0 0 1 0 0 0 0 0 1 0 "
         id="feColorMatrix3051" />
      <feGaussianBlur
         stdDeviation="5"
         result="result6"
         id="feGaussianBlur3053" />
      <feComposite
         result="result91"
         in="result6"
         operator="atop"
         in2="result7"
         id="feComposite3055" />
      <feComposite
         result="fbSourceGraphic"
         operator="in"
         in2="result91"
         id="feComposite3057" />
      <feColorMatrix
         id="feColorMatrix3068"
         values="0 0 0 -1 0 0 0 0 -1 0 0 0 0 -1 0 0 0 0 1 0"
         in="fbSourceGraphic"
         result="fbSourceGraphicAlpha" />
      <feColorMatrix
         in="fbSourceGraphic"
         result="result7"
         values="1 0 0 0 0 0 1 0 0 0 0 0 1 0 0 0 0 0 1 0 "
         id="feColorMatrix3070" />
      <feGaussianBlur
         stdDeviation="5"
         result="result6"
         id="feGaussianBlur3072" />
      <feComposite
         result="result91"
         in="result6"
         operator="atop"
         in2="result7"
         id="feComposite3074" />
      <feComposite
         operator="in"
         in2="result91"
         id="feComposite3076" />
    </filter>
    <filter
       color-interpolation-filters="sRGB"
       inkscape:menu-tooltip="Blur the contents of objects, preserving the outline"
       inkscape:menu="Blurs"
       inkscape:label="Blur content"
       id="filter3085">
      <feColorMatrix
         result="result7"
         values="1 0 0 0 0 0 1 0 0 0 0 0 1 0 0 0 0 0 1 0 "
         id="feColorMatrix3087" />
      <feGaussianBlur
         stdDeviation="5"
         result="result6"
         id="feGaussianBlur3089" />
      <feComposite
         result="result91"
         in="result6"
         operator="atop"
         in2="result7"
         id="feComposite3091" />
      <feComposite
         operator="in"
         in2="result91"
         id="feComposite3093" />
    </filter>
    <filter
       color-interpolation-filters="sRGB"
       inkscape:menu-tooltip="Blur the contents of objects, preserving the outline"
       inkscape:menu="Blurs"
       inkscape:label="Blur content"
       id="filter3119">
      <feColorMatrix
         result="result7"
         values="1 0 0 0 0 0 1 0 0 0 0 0 1 0 0 0 0 0 1 0 "
         id="feColorMatrix3121" />
      <feGaussianBlur
         stdDeviation="5"
         result="result6"
         id="feGaussianBlur3123" />
      <feComposite
         result="result91"
         in="result6"
         operator="atop"
         in2="result7"
         id="feComposite3125" />
      <feComposite
         operator="in"
         in2="result91"
         id="feComposite3127" />
    </filter>
    <filter
       style="color-interpolation-filters:sRGB"
       inkscape:collect="always"
       id="filter6192"
       x="-0.24126238"
       width="1.4825248"
       y="-0.1803408"
       height="1.3606817">
      <feGaussianBlur
         inkscape:collect="always"
         stdDeviation="12.051338"
         id="feGaussianBlur6194" />
    </filter>
    <filter
       style="color-interpolation-filters:sRGB"
       id="filter5278"
       x="-0.25"
       width="1.5"
       y="-0.25"
       height="1.5"
       inkscape:menu-tooltip="Thick acrylic paint texture with high texture depth"
       inkscape:menu="Bumps"
       inkscape:label="Thick acrylic">
      <feGaussianBlur
         id="feGaussianBlur5280"
         result="result9"
         in="SourceGraphic"
         stdDeviation="1" />
      <feTurbulence
         id="feTurbulence5282"
         baseFrequency="0.02"
         numOctaves="5"
         type="fractalNoise"
         result="result7"
         seed="0" />
      <feColorMatrix
         id="feColorMatrix5284"
         values="1 0 0 0 0 0 1 0 0 0 0 0 1 0 0 0 0 0 1 0 "
         result="result5" />
      <feComposite
         id="feComposite5286"
         in2="result5"
         in="result9"
         operator="out"
         result="result6" />
      <feGaussianBlur
         id="feGaussianBlur5288"
         stdDeviation="0.5"
         result="result11" />
      <feDisplacementMap
         id="feDisplacementMap5290"
         in2="result11"
         result="result4"
         scale="100"
         yChannelSelector="G"
         xChannelSelector="A"
         in="result5" />
      <feComposite
         id="feComposite5292"
         in2="result4"
         in="result9"
         operator="in"
         result="result2" />
      <feComposite
         id="feComposite5294"
         in2="SourceGraphic"
         operator="in"
         result="fbSourceGraphic" />
      <feBlend
         id="feBlend5296"
         in2="fbSourceGraphic"
         mode="multiply"
         result="fbSourceGraphic" />
      <feDiffuseLighting
         id="feDiffuseLighting5298"
         diffuseConstant="0.69999999"
         surfaceScale="10"
         in="fbSourceGraphic"
         result="result10">
        <feDistantLight
           id="feDistantLight5300"
           elevation="25"
           azimuth="235" />
      </feDiffuseLighting>
      <feComposite
         id="feComposite5302"
         in2="fbSourceGraphic"
         operator="in"
         result="result2"
         in="result10" />
      <feComposite
         id="feComposite5304"
         in2="result2"
         k3="1"
         k2="1"
         operator="arithmetic"
         result="result4"
         in="fbSourceGraphic"
         k1="0"
         k4="0" />
    </filter>
    <filter
       style="color-interpolation-filters:sRGB"
       inkscape:collect="always"
       id="filter6172"
       x="-0.20237893"
       width="1.4047579"
       y="-0.19845939"
       height="1.3969188">
      <feGaussianBlur
         inkscape:collect="always"
         stdDeviation="13.759561"
         id="feGaussianBlur6174" />
    </filter>
    <filter
       style="color-interpolation-filters:sRGB"
       id="filter3424"
       x="-0.25"
       width="1.5"
       y="-0.25"
       height="1.5"
       inkscape:menu-tooltip="Thick acrylic paint texture with high texture depth"
       inkscape:menu="Bumps"
       inkscape:label="Thick acrylic">
      <feGaussianBlur
         id="feGaussianBlur3426"
         result="result9"
         in="SourceGraphic"
         stdDeviation="1" />
      <feTurbulence
         id="feTurbulence3428"
         baseFrequency="0.02"
         numOctaves="5"
         type="fractalNoise"
         result="result7"
         seed="0" />
      <feColorMatrix
         id="feColorMatrix3430"
         values="1 0 0 0 0 0 1 0 0 0 0 0 1 0 0 0 0 0 1 0 "
         result="result5" />
      <feComposite
         id="feComposite3432"
         in2="result5"
         in="result9"
         operator="out"
         result="result6" />
      <feGaussianBlur
         id="feGaussianBlur3434"
         stdDeviation="0.5"
         result="result11" />
      <feDisplacementMap
         id="feDisplacementMap3436"
         in2="result11"
         result="result4"
         scale="100"
         yChannelSelector="G"
         xChannelSelector="A"
         in="result5" />
      <feComposite
         id="feComposite3438"
         in2="result4"
         in="result9"
         operator="in"
         result="result2" />
      <feComposite
         id="feComposite3440"
         in2="SourceGraphic"
         operator="in"
         result="fbSourceGraphic" />
      <feBlend
         id="feBlend3442"
         in2="fbSourceGraphic"
         mode="multiply"
         result="fbSourceGraphic" />
      <feDiffuseLighting
         id="feDiffuseLighting3444"
         diffuseConstant="0.69999999"
         surfaceScale="10"
         in="fbSourceGraphic"
         result="result10">
        <feDistantLight
           id="feDistantLight3446"
           elevation="25"
           azimuth="235" />
      </feDiffuseLighting>
      <feComposite
         id="feComposite3448"
         in2="fbSourceGraphic"
         operator="in"
         result="result2"
         in="result10" />
      <feComposite
         id="feComposite3450"
         in2="result2"
         k3="1"
         k2="1"
         operator="arithmetic"
         result="result4"
         in="fbSourceGraphic"
         k1="0"
         k4="0" />
    </filter>
    <filter
       style="color-interpolation-filters:sRGB"
       inkscape:collect="always"
       id="filter5274"
       x="-0.072418123"
       width="1.1448362"
       y="-0.14235616"
       height="1.2847123">
      <feGaussianBlur
         inkscape:collect="always"
         stdDeviation="12.08173"
         id="feGaussianBlur5276" />
    </filter>
    <filter
       style="color-interpolation-filters:sRGB"
       id="filter3454"
       x="-0.25"
       width="1.5"
       y="-0.25"
       height="1.5"
       inkscape:menu-tooltip="Thick acrylic paint texture with high texture depth"
       inkscape:menu="Bumps"
       inkscape:label="Thick acrylic">
      <feGaussianBlur
         id="feGaussianBlur3456"
         result="result9"
         in="SourceGraphic"
         stdDeviation="1" />
      <feTurbulence
         id="feTurbulence3458"
         baseFrequency="0.02"
         numOctaves="5"
         type="fractalNoise"
         result="result7"
         seed="0" />
      <feColorMatrix
         id="feColorMatrix3460"
         values="1 0 0 0 0 0 1 0 0 0 0 0 1 0 0 0 0 0 1 0 "
         result="result5" />
      <feComposite
         id="feComposite3462"
         in2="result5"
         in="result9"
         operator="out"
         result="result6" />
      <feGaussianBlur
         id="feGaussianBlur3464"
         stdDeviation="0.5"
         result="result11" />
      <feDisplacementMap
         id="feDisplacementMap3466"
         in2="result11"
         result="result4"
         scale="100"
         yChannelSelector="G"
         xChannelSelector="A"
         in="result5" />
      <feComposite
         id="feComposite3468"
         in2="result4"
         in="result9"
         operator="in"
         result="result2" />
      <feComposite
         id="feComposite3470"
         in2="SourceGraphic"
         operator="in"
         result="fbSourceGraphic" />
      <feBlend
         id="feBlend3472"
         in2="fbSourceGraphic"
         mode="multiply"
         result="fbSourceGraphic" />
      <feDiffuseLighting
         id="feDiffuseLighting3474"
         diffuseConstant="0.69999999"
         surfaceScale="10"
         in="fbSourceGraphic"
         result="result10">
        <feDistantLight
           id="feDistantLight3476"
           elevation="25"
           azimuth="235" />
      </feDiffuseLighting>
      <feComposite
         id="feComposite3478"
         in2="fbSourceGraphic"
         operator="in"
         result="result2"
         in="result10" />
      <feComposite
         id="feComposite3480"
         in2="result2"
         k3="1"
         k2="1"
         operator="arithmetic"
         result="result4"
         in="fbSourceGraphic"
         k1="0"
         k4="0" />
    </filter>
  </defs>
  <metadata
     id="metadata8">
    <rdf:RDF>
      <cc:Work>
        <dc:format>image/svg+xml</dc:format>
        <dc:type
           rdf:resource="http://purl.org/dc/dcmitype/StillImage" />
        <cc:license
           rdf:resource="http://creativecommons.org/licenses/publicdomain/" />
        <dc:publisher>
          <cc:Agent
             rdf:about="http://openclipart.org/">
            <dc:title>Openclipart</dc:title>
          </cc:Agent>
        </dc:publisher>
        <dc:title />
      </cc:Work>
      <cc:License
         rdf:about="http://creativecommons.org/licenses/publicdomain/">
        <cc:permits
           rdf:resource="http://creativecommons.org/ns#Reproduction" />
        <cc:permits
           rdf:resource="http://creativecommons.org/ns#Distribution" />
        <cc:permits
           rdf:resource="http://creativecommons.org/ns#DerivativeWorks" />
      </cc:License>
    </rdf:RDF>
  </metadata>
  <g
     transform="translate(-444.28831,-52.357921)"
     id="g3017">
    <g
       transform="matrix(0.97668433,0,0,0.97668433,24.613334,17.331181)"
       id="g3027">
      <image
         y="35.862907"
         x="429.69357"
         id="image3085"
         height="262.1113"
         width="262.1113"
         xlink:href="data:image/png;base64,iVBORw0KGgoAAAANSUhEUgAAAQAAAAEACAYAAABccqhmAAAACXBIWXMAAAsTAAALEwEAmpwYAAAg AElEQVR4Ae2da6xlRfnm9z7n9GnoRhHFC6Lwj4IKzCijg5IYRztEohIv8Rovo2JEYxSTjnc/tWYS vvhFlItO/HcykiF8EONENOJ1jFFHdNBRERz/XlARgeF+6z6XPe+vej+nq4u1zz67T++1a+/zVFLn rXqrVtW7nlrvU7Vqrb1Ot9frddoK9NXtdjv79u3rbN++vfODH/ygs2vXrpRGR5nsiXQ37MI4pEPd CJTjFMO48evqwFAfmROkrdXV1c5RRx3Vefjhh9M19uIXv3jtmtM1eGR6m/5WFio7BTl7t38FreUr s9PmNCOQe32fw4PFh7DBkOLmnoZo1abkkOpbtrgmAsDZ1+K2bdsW4wqa64+M9Ft2oCo9cTm8JGbG BLy6EmE5nG+1b7fIIFR51U5nbm6uc/TRR3eWl5cP6xTL9lgB0Nbi4mKa9WnfYTACtRCAHJzRIm5f WlrCNuJ8RJUjHepBAAcnrkRc6kfy4XdzRweJM17hj8tLkEKkIQKt7hITsFx/4IEHoujIBAgAUti/ f39qkPYdBiNQEwHMxcB146LB+Rc//elPX/L85z//P9x99933x37BYswoq1w8g0/FJUcCAZynnFVp t0kXzrUUzv1g7N/cc999991x2223/f2HP/zhTbfffvuf//a3v/0lHPv/4e9xeAzh9rmouz/GcWl+ fn4uZO/EE0/s7dmzp/eCF7ygE8d2FhYOXI5RllYG650P9jC733PPPZ24XtL+kepTFn2kFcAZZ5yR 1HFdJelLSCgdkLDxoZox5uiLASg2AbtcHKFLM32kd0Z6xze/+c1rXvaylz37zjvvXNqxY8e2uHh6 cawJYIzjQ9NNM2bTNYIujzounHH1oYceuu+GG274/Y033vi/v/Wtb/3P66677mfhqLeEw86HIzLW D8VQxuG93qMe9ajVK664ohdjnZbto54eG31xbRxCAGoD+7i9gAwcmhGoagUQJs7HoC2GPCpm/tVw /s4dd9yxHIPI7LFiAmgexCOlxWGIeSjzlOX1cPysTiR78+Hoxz772c8+63nPe95Zb37zmy/4y1/+ csP/iPDlL3/5qltuueX/xv35zhjPfVF3KRx4/tWvfvXqueee2/v617/eY3IgsIvPzM4s3xToE8fm GoEESKNTYK5gJfHkJz95rczzh9A5KGsjAOxhrcaScTFmfhh8W8T5uGDmTAAHB24cKc3iedu5U0mP royUocPpop1e3BJEciVUvYXHPe5xZ+zevfvfnX/++e+4/PLLL/v85z//r1QP554LJ99/3HHHzV97 7bUrr3/96ztf/epXOSbN6Mzeg0JeB5IgolPA2Tkf9A6DEaiFALCQ5T1rNSL3/F1mgHD8XsQkzeCB zBgDDpQ7EV0NyquuJHVxuIiMYzdm+QXK0MWsvnzzzTczq59w0UUX/Zezzz77P11wwQUfvP/++2+L +/65u+66a1/cGixcc801y6eeemrn4osv7p133nlpc3Dnzp2JVEpHpm2uB64NrpNBKwDqOQxGoAYC SBdMmKgnABDAthjwOQY1RJfBRxIGn4pLNoOAHCp3GOnUbl4mHZJhwdGRjBX1mP3RRbob47jAbI7u F7/4xf643z839gauet3rXvfuf/zjH38M558PJ34Q0ojbhRVuCb72ta8lEnjwwQc7rARpi7bL0L82 1vpVObaU9qvM8iACj0T0YFnbKZwbe7QKsLO3PQLR30Y4FsdSxESlc0lTRHSs4sLBEyHEpt/i9ddf v//pT3/6c4IE/vvTnva0M6JsLkhgJ4/ugizmWRUECXRjRZCcHxLA0SEBhyOLQC0EIGcXCdRi15FF e0pa0+y5nrk4NqFw+pTP9X2njSa73VgBdOIJQe/Rj3704m9+85ulJz3pSafG3uB/O+WUU54DCbA5 CAlE2iSQ0B3/n1odLc0e4z9997BRBOToqg9JKORkgK4pLyKI4i4kwKPdIIHlE0444V+uuuqqvc98 5jOfE84PCRxD3WEkkPcvOyxHR6BWAhj9THzEYSMgh91IA2XdMq820CuWOlYD4eAsIRZ+97vfLcdt wMlf+tKX9p522mmQABuIQ0mA1YTD5hEwAWwew5lrYZBT60Tl2Hm9fEZWOfWVLmU4MEuI3r333rtw 6623QgInXXrppXtPP/30DZEAG8QOm0fABLB5DLdkCzh87vSjgCDiCBlNdHvx2vBCyOXYEzjpsssu 29BKQL8f4HbhcO0YxeZZrWsCmNWRHeG8Sgcq8+s11VQXnZxc5crnbeG8MZN34zXh3j//+c+FeEKw HM/9T/riF7+oPYHG24FvfOMbHd4P4A3AuF3w04Ec1BHTVRMAF4/j9GOga1JkQF7jyr18vPXZjef/ PV4GCoceSgKvetWr0iNCXheOl4nSB2UgGLWZS/Vt2YxA1QTQbLK1k0RAzoUNpAeFvKw8Ji/DcXnG H7N5N24Feo9//OMXeHPwMY95zEnx2vDeZz3rWY17ApBA/GCsE08ROvHacSKB/pOGQSZZ34CACaAB FKseiUDuxGWpHDqXql/qmo7t3wp04q3AtDF4zDHHLMTTgOV4XyBtDPYfER5yOxCrhblXvvKV3a98 5Sudpz71qelnwbGS8O1ACfCQvAlgCEBbtViOO+z85ehlvVw/LM0qIBw6OXEs6bvxjkCPFwJDn0hg vZXAm970pu7VV1/decpTntKJJwppJeBHhOVoDM6bAAZjs6VKSocv8zkYuUMP0ut4vb+vYyTRk5ZU /Xgk2InNwG6sCnoxoy+EMy9HPq0Emm4HYs9gLn5yfAgJsDcACajN3EanD0XABHAoHs5lCJQORH6Q Tvpcqr6cXFJ6uiKNnlUAXwSKrwmldOzyd/kNQThzIoH1bgdKEuArQSKB7HScbEDABNAAilUHEJAz N+FROrHqlnqOxcEJKkOik16S2wCe77OpF/sAlKc9AVYCQQZpJXDJJZc0PiLMSUB7AjkJQDC1xgTO hP6YACYEfI3dyolz20qdnDivQzrX6xgcW/pBOpXTBvXZEIyvQKVPebEiCFJItwP5SmAUEmBjUG2r r9pkMnBCf2r4HsCETt3dNiGAczBTKpR56ZGUEagvpyrTODX348i8jProiPmxvOLLZ76QMaunY0Km 3w6wEojHhWklEF8V2vuBD3zg/JtuuulXUX5MPDW4nx8QcUzsCaxeeeWVvde+9rWd+NhIJx4ppq8E 01dtAZtY+UwqmAAmhfwU9YuDlqSA+XJolcmpmcV1jJwbScjryPmRRIiCWZ9bAL4NyEdEeNuv7yDd cPK0JwAJsCcwiASo/5a3vCV9bDTIIH01iLZkbzLEfxICJgBfCI9AQM6rAjmvHB19rsN55fT5MWpH 5ZLolUYqj4QA+AAI8dhjj137MGi/70QCrAR4WYinA00kENsFsYCY77zzne9cZSMxvjeQ2qPt0k7Z 26bkXLAvCK1z/PHHd84888xkF1i0HUwAbSM+Jf3JeWUueUJJAsrn9eXc0iHzqHIkkTIcQhInZRUQ bwWmcurQD+Uh170diNn/mLgVuD/q8nXiztvf/nY+I3TwniadxeT+9M8hva/AKuclL3lJ5/vf/34i OvYrdJ5tWWgCaAvpGehHF29+KtLlknLyklzUcuKkzMpFANRXHSQv9UAKuj9m9ibQVoREAmwMaiXw uc99bu+FF16Y9gREAlF3vr8JWA0JcJ6xKlkjAJ0fJzWJUC0BAFRTnARIW7VP8O873BoEctI1RZbA YfMlNmnqS6djaZO2lUfmY007+rkvm3ocn9vRT6fbgShflwRimc3/msDKKkhAmDL7E2K1kuSk/rR/ 0zGpM3W/h4UAF2we5KjSkceBFVRf9UopZ5fkONKK1Ge2j8+GpU1BZkjyRKUhhX4e49Ibg+HkaU+A lQC/HQjH4t/MHYPzB6HMR7sHPisd7ec2ye5xybwvpemLdA3h4MjVYI1tqBKB8mIt8xgtXS7LtPJy fuWRirTFCoANMmZJnJ4yJPqcBEhHHEoCPF2g2SCD9P8nIQUi7XKLIHLpt5f6OJw0xFRGOlZ/ktIh Jx1MAJMegSntH+fJQ55XGrnRSFs6DoLAaUUA5HF+Ra0IcLaSBOJ2Ye3pQLkSiPb5jhjXfDKeWwv6 4J6cpfhmI6RVRpy+5lDtHkDNoG1F23DO/GKWs5Y68mXdHC8dh450HrUyEAHwDgBOL73aztvL0msb g3pZqGljMPrjdoB9hdV4QagXPzDqxP+hTO8cQAD0lQfq5mFQPtfLfggq/klqeqJBeY5V3uYk0yaA SaI/ZX2XF/F6eTmE6iCbYu5w5THMzuggAeQGHOgRJJC/JxCrhfSIMGBPJBA/PV6NF4Z6u3btSj9C 4vcHzOAiHNkjG8nnZeRzncpwfMjrCU94Qie+WdD56U9/mlYqtE39DZxHa1dGtQQgcEvZGjLuaEMI cNHnF7TyjBtLbPIE0uVYKk8dovKSOBGBPCRAP6TLgJ5bgX7YEAlEO/PY9MEPfnD1U5/6VO+cc87p xBeJ0o+QcFSRDm3KnkFS58gxBGyBvMizqqg5HLreqdlS21YFAqUDyimajMvrqt4wmRMBjkiQDklk DwDn0l4ADqeNvL7kX5Kt/ZRYbwxqTyBm6PR0IGzhPYG5IIDuj3/8485JJ52U9gPiNePkxGwQDor8 0lCROrxqTB6ZR+ytOdRtXc3I2bZDEJCzS6pQDq+8ZF5PdSSpQ5rNOUJJAE0kIDLQxmBIlgqJBGKm P2RjMIglfV6MjcZIB5fMz33sYx/rfvvb3+7EvzJPewK0x+xNnaaIbcS8TJuJKkOyOqk5mABqHp1K bcudFxOVL2VpPuU4RF5P6bwuOpxcy2fyiugVcVKtBLQK6K8A0gweukQCMUMvDCIB7AlHnY+6c5/8 5Ce7vJbLh0aHfW1Y9pTnL30u83OrLW0CqG1EZsie3AlIE0opnfSpUr8eM2i+dyDHz+WRJIFoa+4T n/hE97vf/W7niU98YiIBVhTYMKvBBDCrIzvm8yod9nC6o42mqLZYXhPyvkjnBEB6GAnodkArAf2U uPzaMCsBkcD3vve9RAK8krwZEvAtgEbTcssgkDssJ608UukSjFKPYzPzlrcMam8UEoAgytuBJhLI bwc+/vGPb3olULvzg6VXAOWV6PzYESidPe8wJwkIQMtvHZPLUUiAPQKRQMzoaU8AEuDzYvnXhnHa 2HtIKwFI4Dvf+c6Gbwfk8Eil83OrMW0CqHFUptAmOaZMz/OklZdUPUnVUbmkypHS5XKjJMAyvokE 8keEejqA88btR9oYLFcCtKFbE9k2Lc4ue3NpAsjRcHokBOSI+UFNury8TFO/6Rgcu2kmVd1cHg4J xPHpV4SxwkifFxv0odFw+PSIMN8Y5Ln/IBLIySBPl+ddS75aAmCAHbcmBjj0eiF3fuqRH5UEYl9g 7RFhOHN6T+DSSy895JPjOLA2Bj/60Y+m24H4F+bp3X5WFOuRwDQ4P9itjzQ1HIzAiAjIQfPDSh35 XEcaJ5Ze+byNPK1jc7keCbARqFjeDvBloXDYRhJgDyIcPe0JiATyR4QlCeQ2TgMJmADyEXN6rAjI WfNO0CmiV7qpbn6c6payJAFeFNLLQiIAJCSA1MagHhGyJ3DZZZcdsjGYk8BHPvKRR2wM5iSA0yuW 9taYNwHUOCozblPu3PksmTs/aZx5WFBbucxJQAQgWZJAvjEoEohfBTb+L0JWAuwJiATWux3A7mkg guEIDxsBlxuBTSAgx6UJ0sojcWTl1+tCdXLZRAI4f7kagADylQC3A2wMshJgTyB/RMhKgEeEkMCH P/zh7rXXXtspSaB0etm0nv2TLDMBTBL9Ge67vPCVl2w6dZUhFZvq5To5nI7Ny9QGEkKQ80tqNZCT QLS39gMi3hMoSYD+tDEICfADIvYE+Iw57XA7QB3Igki65lA1AWhQ84F0+qBzTBMWOEFpr2Z49GVa +WHOozbVPscR8yU/jiknl/OXsr8KOGRPIJx54EpAtwMf+tCH1kiA14b1H4g2av+w8xt3edUEMO6T d/v1IZA7NE5LnpmUmbUp8oOhMvIrQkXKSCOZjXHMzNnT7/3ZENSTgf6qIH1PQHsCrASaNgZ1OyAS 4B+Z8I9N6YOPmdCvVwD1XWO2qAUEckfOu0NPkMzL8jROhNPi/KQ1o5dSy/hcasaXY+cf6kCnvvOl On3TDy/5UCfkIe8JNJEAx0MCUX9u9+7d3d/+9redc889N31YhH/3dcYZZ3R27tyZTkt95udYQ7ra T4LVAI5tOHIINDlAriNNlOPj6Px/wB/96EdJz4wKIfCVIM3okAM6nJ+lNysEjuPbfrSDRL9jx461 r/WQVtTZcRx98Q0APuVFu8RotxtlvWhj7b8SsxJ43/ved/6NN954yH8lhnTe+ta3rsbmYe/lL395 2hOgfeyoOZgAah6dKbZNS1+cWmmdTpPjqwypciRLav5JCI4PCRBx0pwINJMjlaadPA9JyPEhBWZm Nu/4cOdjH/vYFI877rg1AoIQ+Fpw9N2N/noxyy8E2SzHl4TT7UBGAjvDlgejL54OdM4777zVa665 pvfSl74UExI5pUSlf0wAlQ7MtJs1yPFxyjLkDk86jyzJyTOzM5sSSeNs+Z4AbTJrE+T4kugoo/5d d93Vue2221L617/+dapL++HYKUIKJ598cufEE09c++ekkMCdd97ZizbSSiD+a/FJX/jCF/a+973v fWesBP5P2LIjViUPRvvcDvRe85rXdH7yk5/0nvvc56aVhWxC1hZMALWNyBTbgyM1OTinlDujHBw9 ackyjbNznJxXDs+yn8itALrS8Wkv70820T7390TVSYn4wyrjnnvu6fzpT3/q8IFQrRD4UOipp54K IXSDeHqxMlgIAlmOVcRJl19++b++5z3vecfvf//7G4IEjg57Hoo6C7EiWI5vDHbiEWEPoiLo3FKm oj8mgIoGY5ZNaXIAdLmetGZ5ZJ5nCY/TawWA47MSIFBPTk4+d/48j57jCJCGjkNP+yIGyqn397// vXPzzTczm6cXfp7xjGd0gwx6sUJYiJXEcvT/L5/97Ge/FCTwn//617/+G21wOxDkMR/fEVh529ve Rj9pyUNfNQYTQI2jMkU2yYmGmUy9vG7uEDi1HFLtqL4IoSlPXeklRQQ5CeQ66ilIj460VhKUixBU dvvtt3duueWWzs9+9rPuKaec0jvrrLMW4lZgKTb9TvnMZz7zxXe9611vjf2JW8Peo+J9gH2QyZVX XrnSb7PH3gVBfaZMBX+qIwANELIpVoCZTdggAhpLVW8aT3RycpyFWR0nIZJmJtbsT14RHXUo5/hB gTbVntpENoVcnx9DWo/zWIXEv/vqxrK/d/rpp2+LuP9FL3rRv4+VwH+NPYF3hC13Rf3VWAksBQn0 on6YkPYmmjttMqRFXXUE0OK5u6uWERAB5N2WJIEzqx5pkQASpyfi9H2nWltV5M6rNtGJHEQE9J3X VZ5jSn1uJ30SsSNmfW5Hur/61a96f/7znxdPO+20fa94xStecPHFF1/y/ve//4K47+e/E93HHkW/ TRjABJAD6vTsI1A6lRwTuV4UCUjK+XFANtXkqLRBHZGBEFU/qocUAZCWXvWRpS7Pk8YGJO1gB0QU twDdmOlXr7/++u2xX/DwG97whnMuuuiiPfFp8Y/Ey0ePimX/vdgSx+H86cWivM8a0l4B1DAKM2xD 3wHWzpC8HDSXpHFmfAWpiKPhdPnMf8CfDrxkgzOSV1zrqJ+QXhI1aQXS9C2dZF6OjiiiUZrbgXD0 ucj34jHhUXv37t3/xje+8e3xRuBNV1xxxeV9Ergn2p/nmAjVrQRMABppy7EhIAdDEnJJmijnx8mU RzLzavbV7K/yJlKg/b6zJUm6jNQpQ34MZfSh48iTxjbpREpIbge434/VwOLVV1+9cuGFF+75wx/+ 8G/xX4GvDZt3xq3AA9FeIgrainCQgQ7kJ/a3WgJgAJrixJByxyMjwPjhIAo4D46ODqdGEqmnvIiA PIH7aBw/D9ShnBmYFYD6kHNSl7RkqVeZylPF/p+8TOU6XpL+SMt+dvyxk1eP4z2B3nXXXbctbgP2 xKvBv4vXi2+NdhajPv/pFKMOPIek8QpCtQRQATY2YYMI4MA4BCFPl4erDElUfelFDiIBHAxHp21m ewXKcXzKmgiA+rJnkKQtleXpUqc8kijnV1r9B0mlf0serxUvxCPDffFG4bPiewG79+zZ89G4FdgR +wFLcZ6wGkBVcytwEFVQcDACRxgBObocSc6OLCOOLefP01oNqC2kyiEGOSNS/eCohFyXp8vT1HE6 RuU6pknK+VUGCaAL59/+xz/+ceWFL3zhW84+++xvxq3Ad6KM14UfCLt1K3CAMdXRhKQJYELAb7Vu cVo5mdJyZPSkiZrx0cnxc6y4HdDMLykHlKR+nm7Kq03qKegY2Vcel8/+lOHsHINeZSF74ePd+OHR aqwEFt/97ne/Jwjgf0XdfXHIw/3+YKcqngqYABhJh7EhkDsTnSiPHBRFAtTPHZT6OJ2Oo4y6cj7q kyZQpmOV5jjpUqWGP2V52Z7aQt+0+gh9WgXE9wO2xa8JV+Kbgi8+55xzXhj/WORbsVewIzYK74tu eXMJ5jnIPg22tKEyAbSB8hbro3S0pjyQyJHl8MqzvEengJ6gcpEAzkhdnFGOmR8nHceSHhQGlZXH K48UMahvScpic7IX5AARrPBkYNeuXS8NAvh+v3+dWBWbgSaAQVeF9SMhgHNy8Q8KcuK8DjocGIcW CcihkWUQAagvnI5IXdolUoZOIe9POknqElRHUuWS6POYO7v0uU4blvH68By/MowfEf3HWBEcf++9 994ZtvLVYQysYhVgAtAoW44NATlsLvPO5PSQAGTQ5PzU53iiHD53OqWpJzIhTcgdW2naIcimlIk/ KidfppVHHvDhA0ep70zyTUE+KzbPx0tiU/Cp8XPik4MA7ghyWIxVAU8EDhhwoImJ/a2WAMCnKU4M KXc8EgKMnRyGA+W0kirHaeTw6AhyLo0/5ehEDnJAtcUx6BSVV3u5HZQp5OV5WvUlqa+2JXOd7EUq Tb1osxv5lSCCY+P7AU+kmVDxUgMnygoAOXjZFIXjDtUSwLhP3O0feQRwotxp8h4oU8jrSC8nZ/aW rqyn9nEy1adN6ikqr76QOi7X5WnKibSLJOR9K507t9KS6p886ZDaB1iNJxfzYe8x0Sz3/3J+7wEA tMPsIlA6nvK5zM9eTo2kDjM+AYeSjrSORyfHQ6puSvT/6FiV52VK0x4B8lFQ/VyqPHf6PE1dRfTs BfC2Yn9PgMmWWV8zP50e6FidTkB6BTAB0Ge5SznnoHOUs1GOs+R5dCIB0loN4ExyLKTqkCaoTOlc ki77QNcUBtme98Nx6k9SJFCWYT+vCfPuQtSFXUQAIgEOmWgwAUwU/tnvvHQq5eWUOJHSQgPHkdNT pmPkcMim2Z/jKctlysSfsg/pNyLLNmUHx8pO6WQreq0A+isHzfil3IgJY6tTNQFo8HM5NiTc8BFD QE6gBsu8nFd6nCdPk8dpkDiS6ufORttyOqXVH3oF0rS92VC2qb5xctmlc6AvyrFbtwB9G5j5qwpV E0BVSNmYI4YAzkDEcfqOkRxGaaQcTkRAXseoDIOULmVurMpy3UbTson6tKO28rQICp3qi7iwn9uA 0IuFSrlRU8ZSzwQwFljdKNe7nAU0ynyuk2/kDpSX52m1k7c9KM1xKtNxeV+UjxJkn9rMJek8j+MT WSEQ+/1W5fycuwlglCvAdUdCQE6ng5ryuU5pHIm0gvTkpS8dTnUl1YacUvomSZvM2OsFtUed3AYd Q7lWNKSJIgFWCHHMwRPSQRVIE0AFgzDLJnDd4wwKZR69fIN6eTovy9N5PTkd5RsJuS15fZw1D4Pq lXrlsUNtoCPi+Mz+PAXQeeV99NMQw0GAGiqMU2UCGCe6bjshUDp9madS6SCqIwcrywUtTqc60uVS ZYOOp67q5MflacpVR3apXO1Kqh4S2yABpMp1XC3SBFDLSMy4HU2OI2fRqTc5iXSqi5Su6TjVayqT rpRle2U5+bJd5SV1jPJIEcBG2tfxbUsTQNuIb+H+cAQ5CDDIMXJdrld9ylVXuhzG/HjVy3V53cNN q10dX+alV79IZn+vAITMiBKAm+KIzbj6FCDAOMtxSnNzR1MdSeqSzuvo+LLN/BjVOVyptiTzdnJb RADIWoNXALWOzIzaJQcpnWeQPodBdSQpK9tpqj+sXn5MU5o+6FN9rde/6tAO9RSb2q1BZwKoYRS2 oA1yotxhgEF60mUZujLk9cuyPD+o3ih9qI38GOnUl8qQzPyUl3VUtwZpAqhhFLawDTiHnKaEIXec QXXKY0bN532Uxw7qc71jVCYCKPcAVF72Nal8tQQgoJB5nBRQ7nd8CDC+g5xNvep6GFZP9Y+E3Ihd 6/UzDddttQSwHrAumz0E5OA6s0GOXtZT/XFJ9ddkT5NuXHaMq10TwLiQdbubQkCORyM1OFpuj04s 1zXZSHkedVxN0gRQ02jYlkYEckdThSaHU9kkZJONcv5J2LPRPk0AG0XK9apCoMnhxmngZginbVtH wcEEMAparrtlEdiIE2+GJCYFrAlgUsi735lDoCQJ8qWutpOu9x3F2pCyPUZgBhEwAczgoPqUjMBG Eaj2FkBLJy2jJDd6Yq5nBCaNwDRcs14BTPoqcf9GYIIImAAmCL67NgKTRqDaWwABo2WUpPSWRqB2 BPJrlnSNwSuAGkfFNhmBlhAwAbQEtLsxAjUiYAKocVRskxFoCQETQEtAuxsjUCMCJoAaR8U2GYGW EDABtAS0uzECNSJgAqhxVGyTEWgJARNAS0C7GyNQIwLVvgikFyf0MoVkjSDaJiPQhMA0XLNeATSN nHVGYIsgYALYIgPt0zQCTQiYAJpQsc4IbBEEvAewRQbap9k+At4DaB9z92gEjOD2Mc0AAAgNSURB VMAICPgWYASwXNUIzBoCJoBZG1GfjxEYAQHvAYwAlqsagVEQ8B7AKGi5rhEwAq0j4FuA1iF3h0ag HgRMAPWMhS0xAq0jYAJoHXJ3aATqQcAEUM9Y2BIj0DoCJoDWIXeHRqAeBEwA9YyFLTECrSNgAmgd cndoBOpBoNoXgQSRXqaQlN7SCNSOQH7Nkq4xeAVQ46jYJiPQEgImgJaAdjdGoEYETAA1joptMgIt IVDtHoDumXQfJdkSLu7GCGwagWm4Zr0C2PQwuwEjML0ImACmd+xsuRHYNAImgE1D6AaMwPQiYAKY 3rGz5UZg0wiYADYNoRswAtOLgAlgesfOlhuBTSNgAtg0hG7ACEwvAiaA6R07W24ENo2AXwTaNIRu wAg0I+AXgZpxsdYIGIFKEPAtQCUDYTOMwCQQMAFMAnX3aQQqQcB7AJUMhM2YPQS8BzB7Y+ozMgIz hYBvAWZqOH0yRmA0BEwAo+Hl2kZgphAwAczUcPpkjMBoCJgARsPLtY3ATCFgApip4fTJGIHREDAB jIaXaxuBmULABDBTw+mTMQKjIWACGA0v1zYCM4WACWCmhtMnYwRGQ6DaV4F1GnqdUlJ6SyNQOwL5 NUu6xuAVQI2jYpuMQEsImABaAtrdGIEaETAB1DgqtskItISACaAloN2NEagRgWo3AbVpoo0UyRpB tE1GoAmBabhmvQJoGjnrjMAWQcAEsEUG2qdpBJoQMAE0oWKdEdgiCJgAtshA+zSNQBMCJoAmVKwz AlsEARPAFhlon6YRaELABNCEinVGYIsgYALYIgPt0zQCTQiYAJpQsc4IbBEETABbZKB9mkagCYGp eBUYw6fhtcomgK3b2ghw3dYcvAKoeXRsmxEYMwImgDED7OaNQM0ImABqHh3bZgTGjIAJYMwAu3kj UDMCJoCaR8e2GYExI2ACGDPAbt4I1IyAHwPWPDq2beoR8GPAqR9Cn4ARmF0EfAswu2PrMzMCQxEw AQyFyBWMwOwiYAKY3bH1mRmBoQiYAIZC5ApGYHYRMAHM7tj6zIzAUARMAEMhcgUjMLsImABmd2x9 ZkZgKAImgKEQuYIRmF0ETACzO7Y+MyMwFAETwFCIXMEIzC4CJoDZHVufmREYioAJYChErmAEZheB an8NKMj1ayp/FFSIWE4TAvn1W6PdXgHUOCq2yQi0hIAJoCWg3Y0RqBEBE0CNo2KbjEBLCJgAWgLa 3RiBGhEwAdQ4KrbJCLSEgAmgJaDdjRGoEQETQI2jYpuMQEsImABaAtrdGIEaETAB1DgqtskItISA CaAloN2NEagRARNAjaNim4xASwiYAFoC2t0YgRoRMAHUOCq2yQi0hIAJoCWg3Y0RqBEBE0CNo2Kb jEBLCJgAWgLa3RiBGhEwAdQ4KrbJCLSEgAmgJaDdjRGoEQETQI2jYpuMQEsImABaAtrdGIEaETAB 1DgqtskItISACaAloN2NEagRARNAjaNim4xASwiYAFoC2t0YgRoRMAHUOCq2yQi0hIAJoCWg3Y0R qBEBE0CNo2KbjEBLCJgAWgLa3RiBGhEwAdQ4KrbJCLSEgAmgJaDdjRGoEQETQI2jYpuMQEsImABa AtrdGIEaETAB1DgqtskItISACaAloN2NEagRARNAjaNim4xASwiYAFoC2t0YgRoRMAHUOCq2yQi0 hIAJoCWg3Y0RqBEBE0CNo2KbjEBLCJgAWgLa3RiBGhEwAdQ4KrbJCLSEwEJL/RxONz0O6kXI5eE0 5GOMQNsIcN12I9R+/dZMAGnMAJEEktD2QLo/I7AZBHTNrnPppgluM31s5tjaCAAwUlxaWlrmxPbt 27c0Pz8/t7y8vCIwN3PCPtYItIEAM//CwsI81+/27du3rUaIfolMYrrO2zBl3T5qIQABIrlv27Zt aX8C8ALIuSAB/N8rgHWH04W1IAABcL1y/WLT3NwcE9pKxPmIXOdVhBoIQE6fZMz8+wOZ/bt37774 +OOPP2H//v04/1GBJ4RANAlUcenYiHUQSLN9+P/yysrKw4uLi0u//OUvfx31F+L6fpjjIAgE6UmG GghA578agLFSWgrF/gDshyGPirgz4mJEmBT2dDACtSMAATDjcy3j8PdHZPbvxPWNHsenzsRDLQQg NgQkAHo4bgEeHcsmHF+BOpR7BSBELGtFIJ/ZWbVuj5n/3nD+fZHmGibqmo/k5EJNBCDn5xagG4AB 0EMRmfmxk9kfMB2MQO0IcO3mqwBWAjg/kTRlOUlEdjKhBgIQEyIhAQDisZ/yEAJ2MvObAAIEh+oR 0DWt2X4pbvm5rrmWtRlYBQlMlADCydNI9p2dPQCNLAACEKDh9EQK1ypE2sEI1IyArmGuYx5hpxUu MsiAa53yiYeJEsCBjdBYCx182W+1nwY0Ig5v55/4ZWIDDgMBObiuZfKQQCKGuM6RqnMYzR+ZQyZK ALHJl84inpX24nFJJ573gwug4PgiAOpo5pdE52AEakZAzp1L3g3oxUttPa75eEmoE5vdEz2HiRJA 7IqmkwcIQIEEMgLIgbHj52g4PU0IiACSzRAAcxzXPCE2u5Oc1B+sab1vHJ/Z/+677+78/Oc/78SL Eh2cP8Bp3RZ3aATaRgCfi5fbOvGSWydeduuceeaZvB+QfKJtWyZCAG2fpPszAkagGYGJ3wJMegnU DIu1RqAdBFgJT3IfwCuAdsbZvRiBKhGY6AoARCaxB1HlSNioLYvAJPe+vALYspedT9wI+NVaXwNG YEsj8P8BOoYQVT1vphwAAAAASUVORK5CYII= " />
      <g
         id="g5371"
         transform="matrix(0.40863513,0,0,0.40863513,366.71756,16.940079)">
        <g
           id="g5352">
          <text
             xml:space="preserve"
             style="font-style:normal;font-variant:normal;font-weight:normal;font-stretch:normal;font-size:220px;line-height:125%;font-family:esint10;-inkscape-font-specification:esint10;letter-spacing:0px;word-spacing:0px;fill:#000000;fill-opacity:1;stroke:none;filter:url(#filter6192)"
             x="278.27994"
             y="617.72839"
             id="text5262"
             sodipodi:linespacing="125%"><tspan
               sodipodi:role="line"
               id="tspan5264"
               x="278.27994"
               y="617.72839"
               style="font-style:italic;font-variant:normal;font-weight:bold;font-stretch:normal;font-family:Vemana2000;-inkscape-font-specification:'Vemana2000 Bold Italic';fill:#000000;fill-opacity:1">L</tspan></text>
          <g
             id="g5342">
            <text
               xml:space="preserve"
               style="font-style:normal;font-variant:normal;font-weight:normal;font-stretch:normal;font-size:220px;line-height:125%;font-family:esint10;-inkscape-font-specification:esint10;letter-spacing:0px;word-spacing:0px;fill:#7a3100;fill-opacity:1;stroke:none;filter:url(#filter5278)"
               x="270.27994"
               y="601.72839"
               id="text5248"
               sodipodi:linespacing="125%"><tspan
                 sodipodi:role="line"
                 id="tspan5250"
                 x="270.27994"
                 y="601.72839"
                 style="font-style:italic;font-variant:normal;font-weight:bold;font-stretch:normal;font-family:Vemana2000;-inkscape-font-specification:'Vemana2000 Bold Italic';fill:#7a3100;fill-opacity:1">L</tspan></text>
          </g>
        </g>
        <g
           id="g5359"
           transform="matrix(0.92165852,0,0,0.92165852,38.53083,41.998487)">
          <text
             sodipodi:linespacing="125%"
             id="text5266"
             y="577.32227"
             x="353.19363"
             style="font-style:normal;font-variant:normal;font-weight:normal;font-stretch:normal;font-size:220px;line-height:125%;font-family:esint10;-inkscape-font-specification:esint10;letter-spacing:0px;word-spacing:0px;fill:#000000;fill-opacity:1;stroke:none;filter:url(#filter6172)"
             xml:space="preserve"><tspan
               style="font-style:italic;font-variant:normal;font-weight:bold;font-stretch:normal;font-family:Vemana2000;-inkscape-font-specification:'Vemana2000 Bold Italic';fill:#000000;fill-opacity:1"
               y="577.32227"
               x="353.19363"
               id="tspan5268"
               sodipodi:role="line">G</tspan></text>
          <text
             xml:space="preserve"
             style="font-style:normal;font-variant:normal;font-weight:normal;font-stretch:normal;font-size:220px;line-height:125%;font-family:esint10;-inkscape-font-specification:esint10;letter-spacing:0px;word-spacing:0px;fill:#7a3100;fill-opacity:1;stroke:none;filter:url(#filter5278)"
             x="345.19363"
             y="561.32227"
             id="text5252"
             sodipodi:linespacing="125%"><tspan
               sodipodi:role="line"
               id="tspan5254"
               x="345.19363"
               y="561.32227"
               style="font-style:italic;font-variant:normal;font-weight:bold;font-stretch:normal;font-family:Vemana2000;-inkscape-font-specification:'Vemana2000 Bold Italic';fill:#7a3100;fill-opacity:1">G</tspan></text>
        </g>
        <g
           id="g5365"
           transform="translate(4,0)">
          <text
             xml:space="preserve"
             style="font-style:normal;font-variant:normal;font-weight:normal;font-stretch:normal;font-size:220px;line-height:125%;font-family:esint10;-inkscape-font-specification:esint10;letter-spacing:0px;word-spacing:0px;fill:#000000;fill-opacity:1;stroke:none;filter:url(#filter5274)"
             x="504.65561"
             y="617.72839"
             id="text5270"
             sodipodi:linespacing="125%"><tspan
               sodipodi:role="line"
               id="tspan5272"
               x="504.65561"
               y="617.72839"
               style="font-style:italic;font-variant:normal;font-weight:bold;font-stretch:normal;font-family:Vemana2000;-inkscape-font-specification:'Vemana2000 Bold Italic';fill:#000000;fill-opacity:1">X</tspan></text>
          <text
             sodipodi:linespacing="125%"
             id="text5256"
             y="601.72839"
             x="496.65561"
             style="font-style:normal;font-variant:normal;font-weight:normal;font-stretch:normal;font-size:220px;line-height:125%;font-family:esint10;-inkscape-font-specification:esint10;letter-spacing:0px;word-spacing:0px;fill:#7a3100;fill-opacity:1;stroke:none;filter:url(#filter5278)"
             xml:space="preserve"><tspan
               style="font-style:italic;font-variant:normal;font-weight:bold;font-stretch:normal;font-family:Vemana2000;-inkscape-font-specification:'Vemana2000 Bold Italic';fill:#7a3100;fill-opacity:1"
               y="601.72839"
               x="496.65561"
               id="tspan5258"
               sodipodi:role="line">X</tspan></text>
        </g>
      </g>
    </g>
  </g>
  <g
     transform="translate(-444.28831,-52.357921)"
     style="font-size:163.16629028px;font-style:italic;font-variant:normal;font-weight:bold;font-stretch:normal;line-height:125%;letter-spacing:0px;word-spacing:0px;fill:#00ff00;fill-opacity:1;stroke:#008000;stroke-width:1.19704115;font-family:TeX Gyre Chorus;-inkscape-font-specification:TeX Gyre Chorus Bold Italic"
     id="text3097" />
  <g
     transform="translate(-444.28831,-52.357921)"
     style="font-size:163.16629028px;font-style:italic;font-variant:normal;font-weight:bold;font-stretch:normal;line-height:125%;letter-spacing:0px;word-spacing:0px;fill:#00ff00;fill-opacity:1;stroke:#008000;stroke-width:1.19704115;font-family:TeX Gyre Chorus;-inkscape-font-specification:TeX Gyre Chorus Bold Italic"
     id="text3101" />
  <g
     transform="translate(-444.28831,-52.357921)"
     id="text3955"
     style="font-size:163.16629028px;font-style:italic;font-variant:normal;font-weight:bold;font-stretch:normal;line-height:125%;letter-spacing:0px;word-spacing:0px;fill:#6dc800;fill-opacity:1;stroke:#008000;stroke-width:1.19704115;font-family:TeX Gyre Chorus;-inkscape-font-specification:TeX Gyre Chorus Bold Italic" />
  <g
     transform="translate(-444.28831,-52.357921)"
     id="text3959"
     style="font-size:163.16629028px;font-style:italic;font-variant:normal;font-weight:bold;font-stretch:normal;line-height:125%;letter-spacing:0px;word-spacing:0px;fill:#6dc800;fill-opacity:1;stroke:#008000;stroke-width:1.19704115;font-family:TeX Gyre Chorus;-inkscape-font-specification:TeX Gyre Chorus Bold Italic" />
</svg>
